<?xml version="1.0" encoding="utf-8"?>
<!-- Generator: Adobe Illustrator 15.0.2, SVG Export Plug-In . SVG Version: 6.00 Build 0)  -->
<!DOCTYPE svg PUBLIC "-//W3C//DTD SVG 1.1//EN" "http://www.w3.org/Graphics/SVG/1.1/DTD/svg11.dtd">
<svg version="1.1" id="Layer_1" xmlns="http://www.w3.org/2000/svg" xmlns:xlink="http://www.w3.org/1999/xlink" x="0px" y="0px"
	 width="602.239px" height="162.923px" viewBox="0 0 602.239 162.923" enable-background="new 0 0 602.239 162.923"
	 xml:space="preserve">
<g>
	<defs>
		<polygon id="SVGID_1_" points="208.879,41.971 204.344,57.022 229.756,57.022 225.222,41.971 		"/>
	</defs>
	<clipPath id="SVGID_2_">
		<use xlink:href="#SVGID_1_"  overflow="visible"/>
	</clipPath>
	
		<linearGradient id="SVGID_3_" gradientUnits="userSpaceOnUse" x1="0" y1="162.9229" x2="1" y2="162.9229" gradientTransform="matrix(0 -111.9969 -111.9969 0 18463.9219 132.6895)">
		<stop  offset="0" style="stop-color:#F7C63B"/>
		<stop  offset="0.9892" style="stop-color:#F9EC31"/>
		<stop  offset="1" style="stop-color:#F9EC31"/>
	</linearGradient>
	<rect x="204.344" y="41.971" clip-path="url(#SVGID_2_)" fill="url(#SVGID_3_)" width="25.412" height="15.051"/>
</g>
<g>
	<defs>
		<polygon id="SVGID_4_" points="237.595,41.971 233.061,57.022 258.473,57.022 253.939,41.971 		"/>
	</defs>
	<clipPath id="SVGID_5_">
		<use xlink:href="#SVGID_4_"  overflow="visible"/>
	</clipPath>
	
		<linearGradient id="SVGID_6_" gradientUnits="userSpaceOnUse" x1="0" y1="162.9229" x2="1" y2="162.9229" gradientTransform="matrix(0 -111.9969 -111.9969 0 18492.6094 132.6895)">
		<stop  offset="0" style="stop-color:#F7C63B"/>
		<stop  offset="0.9892" style="stop-color:#F9EC31"/>
		<stop  offset="1" style="stop-color:#F9EC31"/>
	</linearGradient>
	<rect x="233.061" y="41.971" clip-path="url(#SVGID_5_)" fill="url(#SVGID_6_)" width="25.412" height="15.051"/>
</g>
<g>
	<defs>
		<polygon id="SVGID_7_" points="223.237,21.836 218.703,36.887 244.115,36.887 239.581,21.836 		"/>
	</defs>
	<clipPath id="SVGID_8_">
		<use xlink:href="#SVGID_7_"  overflow="visible"/>
	</clipPath>
	
		<linearGradient id="SVGID_9_" gradientUnits="userSpaceOnUse" x1="0" y1="162.9238" x2="1" y2="162.9238" gradientTransform="matrix(0 -111.9969 -111.9969 0 18478.2969 132.6895)">
		<stop  offset="0" style="stop-color:#F7C63B"/>
		<stop  offset="0.9892" style="stop-color:#F9EC31"/>
		<stop  offset="1" style="stop-color:#F9EC31"/>
	</linearGradient>
	<rect x="218.703" y="21.836" clip-path="url(#SVGID_8_)" fill="url(#SVGID_9_)" width="25.412" height="15.051"/>
</g>
<g>
	<defs>
		<polygon id="SVGID_10_" points="194.52,62.106 189.986,77.156 215.398,77.156 210.864,62.106 		"/>
	</defs>
	<clipPath id="SVGID_11_">
		<use xlink:href="#SVGID_10_"  overflow="visible"/>
	</clipPath>
	
		<linearGradient id="SVGID_12_" gradientUnits="userSpaceOnUse" x1="0" y1="162.9229" x2="1" y2="162.9229" gradientTransform="matrix(0 -111.9969 -111.9969 0 18449.5469 132.6895)">
		<stop  offset="0" style="stop-color:#F7C63B"/>
		<stop  offset="0.9892" style="stop-color:#F9EC31"/>
		<stop  offset="1" style="stop-color:#F9EC31"/>
	</linearGradient>
	<rect x="189.986" y="62.106" clip-path="url(#SVGID_11_)" fill="url(#SVGID_12_)" width="25.412" height="15.05"/>
</g>
<g>
	<defs>
		<polygon id="SVGID_13_" points="223.237,62.106 218.703,77.156 244.115,77.156 239.581,62.106 		"/>
	</defs>
	<clipPath id="SVGID_14_">
		<use xlink:href="#SVGID_13_"  overflow="visible"/>
	</clipPath>
	
		<linearGradient id="SVGID_15_" gradientUnits="userSpaceOnUse" x1="0" y1="162.9238" x2="1" y2="162.9238" gradientTransform="matrix(0 -111.9969 -111.9969 0 18478.2969 132.6895)">
		<stop  offset="0" style="stop-color:#F7C63B"/>
		<stop  offset="0.9892" style="stop-color:#F9EC31"/>
		<stop  offset="1" style="stop-color:#F9EC31"/>
	</linearGradient>
	<rect x="218.703" y="62.106" clip-path="url(#SVGID_14_)" fill="url(#SVGID_15_)" width="25.412" height="15.05"/>
</g>
<g>
	<defs>
		<polygon id="SVGID_16_" points="251.955,62.106 247.42,77.156 272.833,77.156 268.298,62.106 		"/>
	</defs>
	<clipPath id="SVGID_17_">
		<use xlink:href="#SVGID_16_"  overflow="visible"/>
	</clipPath>
	
		<linearGradient id="SVGID_18_" gradientUnits="userSpaceOnUse" x1="0" y1="162.9229" x2="1" y2="162.9229" gradientTransform="matrix(0 -111.9969 -111.9969 0 18506.9844 132.6895)">
		<stop  offset="0" style="stop-color:#F7C63B"/>
		<stop  offset="0.9892" style="stop-color:#F9EC31"/>
		<stop  offset="1" style="stop-color:#F9EC31"/>
	</linearGradient>
	<rect x="247.42" y="62.106" clip-path="url(#SVGID_17_)" fill="url(#SVGID_18_)" width="25.413" height="15.05"/>
</g>
<g>
	<defs>
		<polygon id="SVGID_19_" points="165.118,101.203 160.584,116.254 185.997,116.254 181.462,101.203 		"/>
	</defs>
	<clipPath id="SVGID_20_">
		<use xlink:href="#SVGID_19_"  overflow="visible"/>
	</clipPath>
	
		<linearGradient id="SVGID_21_" gradientUnits="userSpaceOnUse" x1="0" y1="162.9229" x2="1" y2="162.9229" gradientTransform="matrix(0 -111.9969 -111.9969 0 18420.1719 132.6895)">
		<stop  offset="0" style="stop-color:#F7C63B"/>
		<stop  offset="0.9892" style="stop-color:#F9EC31"/>
		<stop  offset="1" style="stop-color:#F9EC31"/>
	</linearGradient>
	<rect x="160.584" y="101.203" clip-path="url(#SVGID_20_)" fill="url(#SVGID_21_)" width="25.413" height="15.051"/>
</g>
<g>
	<defs>
		<polygon id="SVGID_22_" points="193.836,101.203 189.301,116.254 214.714,116.254 210.179,101.203 		"/>
	</defs>
	<clipPath id="SVGID_23_">
		<use xlink:href="#SVGID_22_"  overflow="visible"/>
	</clipPath>
	
		<linearGradient id="SVGID_24_" gradientUnits="userSpaceOnUse" x1="0" y1="162.9238" x2="1" y2="162.9238" gradientTransform="matrix(0 -111.9969 -111.9969 0 18448.8594 132.6895)">
		<stop  offset="0" style="stop-color:#F7C63B"/>
		<stop  offset="0.9892" style="stop-color:#F9EC31"/>
		<stop  offset="1" style="stop-color:#F9EC31"/>
	</linearGradient>
	<rect x="189.301" y="101.203" clip-path="url(#SVGID_23_)" fill="url(#SVGID_24_)" width="25.413" height="15.051"/>
</g>
<g>
	<defs>
		<polygon id="SVGID_25_" points="208.699,81.654 204.165,96.705 229.577,96.705 225.043,81.654 		"/>
	</defs>
	<clipPath id="SVGID_26_">
		<use xlink:href="#SVGID_25_"  overflow="visible"/>
	</clipPath>
	
		<linearGradient id="SVGID_27_" gradientUnits="userSpaceOnUse" x1="0" y1="162.9238" x2="1" y2="162.9238" gradientTransform="matrix(0 -111.9969 -111.9969 0 18463.7344 132.6895)">
		<stop  offset="0" style="stop-color:#F7C63B"/>
		<stop  offset="0.9892" style="stop-color:#F9EC31"/>
		<stop  offset="1" style="stop-color:#F9EC31"/>
	</linearGradient>
	<rect x="204.165" y="81.654" clip-path="url(#SVGID_26_)" fill="url(#SVGID_27_)" width="25.412" height="15.051"/>
</g>
<g>
	<defs>
		<polygon id="SVGID_28_" points="237.416,81.654 232.881,96.705 258.295,96.705 253.76,81.654 		"/>
	</defs>
	<clipPath id="SVGID_29_">
		<use xlink:href="#SVGID_28_"  overflow="visible"/>
	</clipPath>
	
		<linearGradient id="SVGID_30_" gradientUnits="userSpaceOnUse" x1="0" y1="162.9229" x2="1" y2="162.9229" gradientTransform="matrix(0 -111.9969 -111.9969 0 18492.4219 132.6895)">
		<stop  offset="0" style="stop-color:#F7C63B"/>
		<stop  offset="0.9892" style="stop-color:#F9EC31"/>
		<stop  offset="1" style="stop-color:#F9EC31"/>
	</linearGradient>
	<rect x="232.881" y="81.654" clip-path="url(#SVGID_29_)" fill="url(#SVGID_30_)" width="25.414" height="15.051"/>
</g>
<g>
	<defs>
		<polygon id="SVGID_31_" points="223.112,101.496 218.578,116.547 243.99,116.547 239.456,101.496 		"/>
	</defs>
	<clipPath id="SVGID_32_">
		<use xlink:href="#SVGID_31_"  overflow="visible"/>
	</clipPath>
	
		<linearGradient id="SVGID_33_" gradientUnits="userSpaceOnUse" x1="0" y1="162.9238" x2="1" y2="162.9238" gradientTransform="matrix(0 -111.9969 -111.9969 0 18478.1719 132.6895)">
		<stop  offset="0" style="stop-color:#F7C63B"/>
		<stop  offset="0.9892" style="stop-color:#F9EC31"/>
		<stop  offset="1" style="stop-color:#F9EC31"/>
	</linearGradient>
	<rect x="218.578" y="101.496" clip-path="url(#SVGID_32_)" fill="url(#SVGID_33_)" width="25.412" height="15.051"/>
</g>
<g>
	<defs>
		<polygon id="SVGID_34_" points="179.477,81.069 174.942,96.119 200.355,96.119 195.821,81.069 		"/>
	</defs>
	<clipPath id="SVGID_35_">
		<use xlink:href="#SVGID_34_"  overflow="visible"/>
	</clipPath>
	
		<linearGradient id="SVGID_36_" gradientUnits="userSpaceOnUse" x1="0" y1="162.9229" x2="1" y2="162.9229" gradientTransform="matrix(0 -111.9969 -111.9969 0 18434.4844 132.6895)">
		<stop  offset="0" style="stop-color:#F7C63B"/>
		<stop  offset="0.9892" style="stop-color:#F9EC31"/>
		<stop  offset="1" style="stop-color:#F9EC31"/>
	</linearGradient>
	<rect x="174.942" y="81.069" clip-path="url(#SVGID_35_)" fill="url(#SVGID_36_)" width="25.413" height="15.05"/>
</g>
<g>
	<defs>
		<polygon id="SVGID_37_" points="252.388,101.203 247.854,116.254 273.266,116.254 268.732,101.203 		"/>
	</defs>
	<clipPath id="SVGID_38_">
		<use xlink:href="#SVGID_37_"  overflow="visible"/>
	</clipPath>
	
		<linearGradient id="SVGID_39_" gradientUnits="userSpaceOnUse" x1="0" y1="162.9229" x2="1" y2="162.9229" gradientTransform="matrix(0 -111.9969 -111.9969 0 18507.4219 132.6895)">
		<stop  offset="0" style="stop-color:#F7C63B"/>
		<stop  offset="0.9892" style="stop-color:#F9EC31"/>
		<stop  offset="1" style="stop-color:#F9EC31"/>
	</linearGradient>
	<rect x="247.854" y="101.203" clip-path="url(#SVGID_38_)" fill="url(#SVGID_39_)" width="25.412" height="15.051"/>
</g>
<g>
	<defs>
		<polygon id="SVGID_40_" points="281.106,101.203 276.571,116.254 301.984,116.254 297.45,101.203 		"/>
	</defs>
	<clipPath id="SVGID_41_">
		<use xlink:href="#SVGID_40_"  overflow="visible"/>
	</clipPath>
	
		<linearGradient id="SVGID_42_" gradientUnits="userSpaceOnUse" x1="0" y1="162.9229" x2="1" y2="162.9229" gradientTransform="matrix(0 -111.9969 -111.9969 0 18536.1094 132.6895)">
		<stop  offset="0" style="stop-color:#F7C63B"/>
		<stop  offset="0.9892" style="stop-color:#F9EC31"/>
		<stop  offset="1" style="stop-color:#F9EC31"/>
	</linearGradient>
	<rect x="276.571" y="101.203" clip-path="url(#SVGID_41_)" fill="url(#SVGID_42_)" width="25.414" height="15.051"/>
</g>
<g>
	<defs>
		<polygon id="SVGID_43_" points="266.747,81.069 262.213,96.119 287.626,96.119 283.09,81.069 		"/>
	</defs>
	<clipPath id="SVGID_44_">
		<use xlink:href="#SVGID_43_"  overflow="visible"/>
	</clipPath>
	
		<linearGradient id="SVGID_45_" gradientUnits="userSpaceOnUse" x1="0" y1="162.9238" x2="1" y2="162.9238" gradientTransform="matrix(0 -111.9969 -111.9969 0 18521.7969 132.6895)">
		<stop  offset="0" style="stop-color:#F7C63B"/>
		<stop  offset="0.9892" style="stop-color:#F9EC31"/>
		<stop  offset="1" style="stop-color:#F9EC31"/>
	</linearGradient>
	<rect x="262.213" y="81.069" clip-path="url(#SVGID_44_)" fill="url(#SVGID_45_)" width="25.413" height="15.05"/>
</g>
<g>
	<defs>
		<path id="SVGID_46_" d="M355.747,61.908l-0.029,0.031l-0.061,0.06l-0.062,0.06c0,0.031-0.029,0.031-0.029,0.06
			c0,0.031-0.03,0.031-0.03,0.062c0,0.029-0.031,0.029-0.031,0.06c0,0-0.03,0.03-0.03,0.06c-0.029,0-0.029,0.031-0.029,0.061
			c-0.03,0-0.03,0.03-0.03,0.061v0.06v0.09v0.031l2.269,18.531c0.031,0.394,0.362,0.696,0.757,0.696h14.7
			c0.395,0,0.727-0.302,0.757-0.696l2.088-18.562v-0.03v-0.091c0-0.029,0-0.029,0.03-0.06c-0.03,0-0.03-0.03-0.03-0.06
			c0,0-0.031-0.031-0.031-0.061c0-0.03-0.029-0.03-0.029-0.061c0,0,0-0.029-0.031-0.06c-0.029,0-0.029-0.031-0.029-0.031
			c-0.03,0-0.03-0.029-0.03-0.029l-0.061-0.061l-0.062-0.061l-0.06-0.06c-0.031,0-0.031-0.03-0.061-0.03c0,0-0.031-0.03-0.061-0.03
			c0,0-0.03-0.03-0.062-0.03c0-0.031-0.029-0.031-0.06-0.031c-0.031-0.03-0.062-0.03-0.091-0.03h-0.031h-0.029h-0.091h-0.061
			c-0.03,0.03-0.062,0.03-0.092,0.03c-0.029,0.031-0.029,0.031-0.059,0.031c0,0-0.031,0.03-0.061,0.03c-0.03,0-0.03,0.03-0.061,0.03
			c0,0.03-0.031,0.03-0.031,0.03c-2.57,1.785-6.05,1.785-8.65,0c-1.559-1.089-3.381-1.634-5.203-1.634
			C359.128,60.274,357.306,60.819,355.747,61.908"/>
	</defs>
	<clipPath id="SVGID_47_">
		<use xlink:href="#SVGID_46_"  overflow="visible"/>
	</clipPath>
	
		<linearGradient id="SVGID_48_" gradientUnits="userSpaceOnUse" x1="0" y1="162.9238" x2="1" y2="162.9238" gradientTransform="matrix(0 128.6722 128.6722 0 -20597.9453 -3.1626)">
		<stop  offset="0" style="stop-color:#00ADEE"/>
		<stop  offset="0.3121" style="stop-color:#00ADEE"/>
		<stop  offset="0.4796" style="stop-color:#03A7E9"/>
		<stop  offset="0.6997" style="stop-color:#0B97DA"/>
		<stop  offset="0.948" style="stop-color:#187CC1"/>
		<stop  offset="1" style="stop-color:#1B75BB"/>
	</linearGradient>
	<rect x="355.415" y="60.274" clip-path="url(#SVGID_47_)" fill="url(#SVGID_48_)" width="20.601" height="21.557"/>
</g>
<g>
	<defs>
		<path id="SVGID_49_" d="M384.82,61.685l-0.03,0.03l-0.062,0.061l-0.06,0.06c0,0.03-0.031,0.03-0.031,0.06
			c0,0.031-0.029,0.031-0.029,0.061c0,0.03-0.03,0.03-0.03,0.061c0,0-0.03,0.03-0.03,0.06c-0.03,0-0.03,0.031-0.03,0.061
			c-0.029,0-0.029,0.03-0.029,0.06v0.061v0.09v0.03l2.268,18.532c0.031,0.394,0.363,0.697,0.756,0.697h14.702
			c0.394,0,0.726-0.303,0.756-0.697l2.088-18.562v-0.03v-0.091c0-0.03,0-0.03,0.029-0.06c-0.029,0-0.029-0.03-0.029-0.06
			c0,0-0.03-0.031-0.03-0.061s-0.031-0.03-0.031-0.061c0,0,0-0.03-0.029-0.06c-0.031,0-0.031-0.031-0.031-0.031
			c-0.03,0-0.03-0.03-0.03-0.03l-0.061-0.06l-0.06-0.061l-0.061-0.06c-0.03,0-0.03-0.031-0.062-0.031c0,0-0.029-0.03-0.061-0.03
			c0,0-0.029-0.03-0.06-0.03c0-0.031-0.031-0.031-0.061-0.031c-0.03-0.029-0.062-0.029-0.091-0.029h-0.03h-0.031h-0.09h-0.062
			c-0.029,0.029-0.06,0.029-0.09,0.029c-0.029,0.031-0.029,0.031-0.06,0.031c0,0-0.031,0.03-0.061,0.03
			c-0.031,0-0.031,0.03-0.062,0.03c0,0.031-0.029,0.031-0.029,0.031c-2.572,1.784-6.05,1.784-8.652,0
			c-1.558-1.089-3.38-1.634-5.202-1.634S386.378,60.596,384.82,61.685"/>
	</defs>
	<clipPath id="SVGID_50_">
		<use xlink:href="#SVGID_49_"  overflow="visible"/>
	</clipPath>
	
		<linearGradient id="SVGID_51_" gradientUnits="userSpaceOnUse" x1="0" y1="162.9229" x2="1" y2="162.9229" gradientTransform="matrix(0 128.6722 128.6722 0 -20568.8203 -3.1626)">
		<stop  offset="0" style="stop-color:#00ADEE"/>
		<stop  offset="0.3121" style="stop-color:#00ADEE"/>
		<stop  offset="0.4796" style="stop-color:#03A7E9"/>
		<stop  offset="0.6997" style="stop-color:#0B97DA"/>
		<stop  offset="0.948" style="stop-color:#187CC1"/>
		<stop  offset="1" style="stop-color:#1B75BB"/>
	</linearGradient>
	<rect x="384.488" y="60.051" clip-path="url(#SVGID_50_)" fill="url(#SVGID_51_)" width="20.599" height="21.558"/>
</g>
<g>
	<defs>
		<path id="SVGID_52_" d="M413.892,61.685l-0.029,0.03l-0.062,0.061l-0.06,0.06c0,0.03-0.031,0.03-0.031,0.06
			c0,0.031-0.029,0.031-0.029,0.061c0,0.03-0.029,0.03-0.029,0.061c0,0-0.03,0.03-0.03,0.06c-0.031,0-0.031,0.031-0.031,0.061
			c-0.03,0-0.03,0.03-0.03,0.06v0.061v0.09v0.03l2.27,18.532c0.03,0.394,0.362,0.697,0.756,0.697h14.7
			c0.395,0,0.727-0.303,0.756-0.697l2.088-18.562v-0.03v-0.091c0-0.03,0-0.03,0.031-0.06c-0.031,0-0.031-0.03-0.031-0.06
			c0,0-0.03-0.031-0.03-0.061s-0.029-0.03-0.029-0.061c0,0,0-0.03-0.031-0.06c-0.029,0-0.029-0.031-0.029-0.031
			c-0.031,0-0.031-0.03-0.031-0.03l-0.06-0.06l-0.061-0.061l-0.062-0.06c-0.03,0-0.03-0.031-0.06-0.031c0,0-0.03-0.03-0.061-0.03
			c0,0-0.031-0.03-0.061-0.03c0-0.031-0.03-0.031-0.062-0.031c-0.029-0.029-0.06-0.029-0.091-0.029h-0.03h-0.029h-0.091h-0.061
			c-0.031,0.029-0.06,0.029-0.09,0.029c-0.031,0.031-0.031,0.031-0.061,0.031c0,0-0.03,0.03-0.062,0.03
			c-0.029,0-0.029,0.03-0.06,0.03c0,0.031-0.031,0.031-0.031,0.031c-2.571,1.784-6.049,1.784-8.65,0
			c-1.559-1.089-3.381-1.634-5.204-1.634C417.273,60.051,415.45,60.596,413.892,61.685"/>
	</defs>
	<clipPath id="SVGID_53_">
		<use xlink:href="#SVGID_52_"  overflow="visible"/>
	</clipPath>
	
		<linearGradient id="SVGID_54_" gradientUnits="userSpaceOnUse" x1="0" y1="162.9229" x2="1" y2="162.9229" gradientTransform="matrix(0 128.6722 128.6722 0 -20539.8203 -3.1626)">
		<stop  offset="0" style="stop-color:#00ADEE"/>
		<stop  offset="0.3121" style="stop-color:#00ADEE"/>
		<stop  offset="0.4796" style="stop-color:#03A7E9"/>
		<stop  offset="0.6997" style="stop-color:#0B97DA"/>
		<stop  offset="0.948" style="stop-color:#187CC1"/>
		<stop  offset="1" style="stop-color:#1B75BB"/>
	</linearGradient>
	<rect x="413.56" y="60.051" clip-path="url(#SVGID_53_)" fill="url(#SVGID_54_)" width="20.601" height="21.558"/>
</g>
<g>
	<defs>
		<path id="SVGID_55_" d="M355.747,28.821l-0.029,0.03l-0.061,0.061l-0.062,0.06c0,0.031-0.029,0.031-0.029,0.061
			c0,0.03-0.03,0.03-0.03,0.06c0,0.031-0.031,0.031-0.031,0.06c0,0-0.03,0.031-0.03,0.061c-0.029,0-0.029,0.03-0.029,0.061
			c-0.03,0-0.03,0.03-0.03,0.06v0.06v0.091v0.031l2.269,18.532c0.031,0.392,0.362,0.696,0.757,0.696h14.7
			c0.395,0,0.727-0.304,0.757-0.696l2.088-18.563v-0.029v-0.091c0-0.031,0-0.031,0.03-0.061c-0.03,0-0.03-0.03-0.03-0.061
			c0,0-0.031-0.03-0.031-0.06c0-0.031-0.029-0.031-0.029-0.06c0,0,0-0.031-0.031-0.061c-0.029,0-0.029-0.03-0.029-0.03
			c-0.03,0-0.03-0.03-0.03-0.03l-0.061-0.061l-0.062-0.06l-0.06-0.061c-0.031,0-0.031-0.03-0.061-0.03c0,0-0.031-0.031-0.061-0.031
			c0,0-0.03-0.03-0.062-0.03c0-0.03-0.029-0.03-0.06-0.03c-0.031-0.03-0.062-0.03-0.091-0.03h-0.031h-0.029h-0.091h-0.061
			c-0.03,0.03-0.062,0.03-0.092,0.03c-0.029,0.03-0.029,0.03-0.059,0.03c0,0-0.031,0.03-0.061,0.03c-0.03,0-0.03,0.031-0.061,0.031
			c0,0.03-0.031,0.03-0.031,0.03c-2.57,1.785-6.05,1.785-8.65,0c-1.559-1.089-3.381-1.633-5.203-1.633
			C359.128,27.188,357.306,27.732,355.747,28.821"/>
	</defs>
	<clipPath id="SVGID_56_">
		<use xlink:href="#SVGID_55_"  overflow="visible"/>
	</clipPath>
	
		<linearGradient id="SVGID_57_" gradientUnits="userSpaceOnUse" x1="0" y1="162.9238" x2="1" y2="162.9238" gradientTransform="matrix(0 128.6722 128.6722 0 -20597.9453 -3.1626)">
		<stop  offset="0" style="stop-color:#00ADEE"/>
		<stop  offset="0.3121" style="stop-color:#00ADEE"/>
		<stop  offset="0.4796" style="stop-color:#03A7E9"/>
		<stop  offset="0.6997" style="stop-color:#0B97DA"/>
		<stop  offset="0.948" style="stop-color:#187CC1"/>
		<stop  offset="1" style="stop-color:#1B75BB"/>
	</linearGradient>
	<rect x="355.415" y="27.188" clip-path="url(#SVGID_56_)" fill="url(#SVGID_57_)" width="20.601" height="21.557"/>
</g>
<g>
	<defs>
		<path id="SVGID_58_" d="M384.82,28.821l-0.03,0.03l-0.062,0.061l-0.06,0.06c0,0.031-0.031,0.031-0.031,0.061
			c0,0.03-0.029,0.03-0.029,0.06c0,0.031-0.03,0.031-0.03,0.06c0,0-0.03,0.031-0.03,0.061c-0.03,0-0.03,0.03-0.03,0.061
			c-0.029,0-0.029,0.03-0.029,0.06v0.06v0.091v0.031l2.268,18.532c0.031,0.392,0.363,0.696,0.756,0.696h14.702
			c0.394,0,0.726-0.304,0.756-0.696l2.088-18.563v-0.029v-0.091c0-0.031,0-0.031,0.029-0.061c-0.029,0-0.029-0.03-0.029-0.061
			c0,0-0.03-0.03-0.03-0.06c0-0.031-0.031-0.031-0.031-0.06c0,0,0-0.031-0.029-0.061c-0.031,0-0.031-0.03-0.031-0.03
			c-0.03,0-0.03-0.03-0.03-0.03l-0.061-0.061l-0.06-0.06l-0.061-0.061c-0.03,0-0.03-0.03-0.062-0.03c0,0-0.029-0.031-0.061-0.031
			c0,0-0.029-0.03-0.06-0.03c0-0.03-0.031-0.03-0.061-0.03c-0.03-0.03-0.062-0.03-0.091-0.03h-0.03h-0.031h-0.09h-0.062
			c-0.029,0.03-0.06,0.03-0.09,0.03c-0.029,0.03-0.029,0.03-0.06,0.03c0,0-0.031,0.03-0.061,0.03c-0.031,0-0.031,0.031-0.062,0.031
			c0,0.03-0.029,0.03-0.029,0.03c-2.572,1.785-6.05,1.785-8.652,0c-1.558-1.089-3.38-1.633-5.202-1.633
			S386.378,27.732,384.82,28.821"/>
	</defs>
	<clipPath id="SVGID_59_">
		<use xlink:href="#SVGID_58_"  overflow="visible"/>
	</clipPath>
	
		<linearGradient id="SVGID_60_" gradientUnits="userSpaceOnUse" x1="0" y1="162.9229" x2="1" y2="162.9229" gradientTransform="matrix(0 128.6722 128.6722 0 -20568.8203 -3.1626)">
		<stop  offset="0" style="stop-color:#00ADEE"/>
		<stop  offset="0.3121" style="stop-color:#00ADEE"/>
		<stop  offset="0.4796" style="stop-color:#03A7E9"/>
		<stop  offset="0.6997" style="stop-color:#0B97DA"/>
		<stop  offset="0.948" style="stop-color:#187CC1"/>
		<stop  offset="1" style="stop-color:#1B75BB"/>
	</linearGradient>
	<rect x="384.488" y="27.188" clip-path="url(#SVGID_59_)" fill="url(#SVGID_60_)" width="20.599" height="21.557"/>
</g>
<g>
	<defs>
		<path id="SVGID_61_" d="M413.892,28.821l-0.029,0.03l-0.062,0.061l-0.06,0.06c0,0.031-0.031,0.031-0.031,0.061
			c0,0.03-0.029,0.03-0.029,0.06c0,0.031-0.029,0.031-0.029,0.06c0,0-0.03,0.031-0.03,0.061c-0.031,0-0.031,0.03-0.031,0.061
			c-0.03,0-0.03,0.03-0.03,0.06v0.06v0.091v0.031l2.27,18.532c0.03,0.392,0.362,0.696,0.756,0.696h14.7
			c0.395,0,0.727-0.304,0.756-0.696l2.088-18.563v-0.029v-0.091c0-0.031,0-0.031,0.031-0.061c-0.031,0-0.031-0.03-0.031-0.061
			c0,0-0.03-0.03-0.03-0.06c0-0.031-0.029-0.031-0.029-0.06c0,0,0-0.031-0.031-0.061c-0.029,0-0.029-0.03-0.029-0.03
			c-0.031,0-0.031-0.03-0.031-0.03l-0.06-0.061l-0.061-0.06l-0.062-0.061c-0.03,0-0.03-0.03-0.06-0.03c0,0-0.03-0.031-0.061-0.031
			c0,0-0.031-0.03-0.061-0.03c0-0.03-0.03-0.03-0.062-0.03c-0.029-0.03-0.06-0.03-0.091-0.03h-0.03h-0.029h-0.091h-0.061
			c-0.031,0.03-0.06,0.03-0.09,0.03c-0.031,0.03-0.031,0.03-0.061,0.03c0,0-0.03,0.03-0.062,0.03c-0.029,0-0.029,0.031-0.06,0.031
			c0,0.03-0.031,0.03-0.031,0.03c-2.571,1.785-6.049,1.785-8.65,0c-1.559-1.089-3.381-1.633-5.204-1.633
			C417.273,27.188,415.45,27.732,413.892,28.821"/>
	</defs>
	<clipPath id="SVGID_62_">
		<use xlink:href="#SVGID_61_"  overflow="visible"/>
	</clipPath>
	
		<linearGradient id="SVGID_63_" gradientUnits="userSpaceOnUse" x1="0" y1="162.9229" x2="1" y2="162.9229" gradientTransform="matrix(0 128.6722 128.6722 0 -20539.8203 -3.1626)">
		<stop  offset="0" style="stop-color:#00ADEE"/>
		<stop  offset="0.3121" style="stop-color:#00ADEE"/>
		<stop  offset="0.4796" style="stop-color:#03A7E9"/>
		<stop  offset="0.6997" style="stop-color:#0B97DA"/>
		<stop  offset="0.948" style="stop-color:#187CC1"/>
		<stop  offset="1" style="stop-color:#1B75BB"/>
	</linearGradient>
	<rect x="413.56" y="27.188" clip-path="url(#SVGID_62_)" fill="url(#SVGID_63_)" width="20.601" height="21.557"/>
</g>
<g>
	<defs>
		<path id="SVGID_64_" d="M355.747,94.771l-0.029,0.031l-0.061,0.061l-0.062,0.061c0,0.03-0.029,0.03-0.029,0.061
			c0,0.029-0.03,0.029-0.03,0.061s-0.031,0.031-0.031,0.06c0,0-0.03,0.031-0.03,0.063c-0.029,0-0.029,0.029-0.029,0.06
			c-0.03,0-0.03,0.03-0.03,0.061v0.06v0.091v0.031l2.269,18.531c0.031,0.393,0.362,0.697,0.757,0.697h14.7
			c0.395,0,0.727-0.305,0.757-0.697l2.088-18.563v-0.028v-0.092c0-0.03,0-0.03,0.03-0.061c-0.03,0-0.03-0.03-0.03-0.061
			c0,0-0.031-0.029-0.031-0.061s-0.029-0.031-0.029-0.06c0,0,0-0.031-0.031-0.063c-0.029,0-0.029-0.029-0.029-0.029
			c-0.03,0-0.03-0.03-0.03-0.03l-0.061-0.061l-0.062-0.06l-0.06-0.063c-0.031,0-0.031-0.028-0.061-0.028
			c0,0-0.031-0.031-0.061-0.031c0,0-0.03-0.031-0.062-0.031c0-0.029-0.029-0.029-0.06-0.029c-0.031-0.029-0.062-0.029-0.091-0.029
			h-0.031h-0.029h-0.091h-0.061c-0.03,0.029-0.062,0.029-0.092,0.029c-0.029,0.029-0.029,0.029-0.059,0.029
			c0,0-0.031,0.031-0.061,0.031c-0.03,0-0.03,0.031-0.061,0.031c0,0.028-0.031,0.028-0.031,0.028c-2.57,1.786-6.05,1.786-8.65,0
			c-1.559-1.088-3.381-1.632-5.203-1.632C359.128,93.139,357.306,93.683,355.747,94.771"/>
	</defs>
	<clipPath id="SVGID_65_">
		<use xlink:href="#SVGID_64_"  overflow="visible"/>
	</clipPath>
	
		<linearGradient id="SVGID_66_" gradientUnits="userSpaceOnUse" x1="0" y1="162.9238" x2="1" y2="162.9238" gradientTransform="matrix(0 128.6722 128.6722 0 -20597.9453 -3.1626)">
		<stop  offset="0" style="stop-color:#00ADEE"/>
		<stop  offset="0.3121" style="stop-color:#00ADEE"/>
		<stop  offset="0.4796" style="stop-color:#03A7E9"/>
		<stop  offset="0.6997" style="stop-color:#0B97DA"/>
		<stop  offset="0.948" style="stop-color:#187CC1"/>
		<stop  offset="1" style="stop-color:#1B75BB"/>
	</linearGradient>
	<rect x="355.415" y="93.139" clip-path="url(#SVGID_65_)" fill="url(#SVGID_66_)" width="20.601" height="21.558"/>
</g>
<g>
	<defs>
		<path id="SVGID_67_" d="M384.82,94.771l-0.03,0.031l-0.062,0.061l-0.06,0.061c0,0.03-0.031,0.03-0.031,0.061
			c0,0.029-0.029,0.029-0.029,0.061s-0.03,0.031-0.03,0.06c0,0-0.03,0.031-0.03,0.063c-0.03,0-0.03,0.029-0.03,0.06
			c-0.029,0-0.029,0.03-0.029,0.061v0.06v0.091v0.031l2.268,18.531c0.031,0.393,0.363,0.697,0.756,0.697h14.702
			c0.394,0,0.726-0.305,0.756-0.697l2.088-18.563v-0.028v-0.092c0-0.03,0-0.03,0.029-0.061c-0.029,0-0.029-0.03-0.029-0.061
			c0,0-0.03-0.029-0.03-0.061s-0.031-0.031-0.031-0.06c0,0,0-0.031-0.029-0.063c-0.031,0-0.031-0.029-0.031-0.029
			c-0.03,0-0.03-0.03-0.03-0.03l-0.061-0.061l-0.06-0.06l-0.061-0.063c-0.03,0-0.03-0.028-0.062-0.028c0,0-0.029-0.031-0.061-0.031
			c0,0-0.029-0.031-0.06-0.031c0-0.029-0.031-0.029-0.061-0.029c-0.03-0.029-0.062-0.029-0.091-0.029h-0.03h-0.031h-0.09h-0.062
			c-0.029,0.029-0.06,0.029-0.09,0.029c-0.029,0.029-0.029,0.029-0.06,0.029c0,0-0.031,0.031-0.061,0.031
			c-0.031,0-0.031,0.031-0.062,0.031c0,0.028-0.029,0.028-0.029,0.028c-2.572,1.786-6.05,1.786-8.652,0
			c-1.558-1.088-3.38-1.632-5.202-1.632S386.378,93.683,384.82,94.771"/>
	</defs>
	<clipPath id="SVGID_68_">
		<use xlink:href="#SVGID_67_"  overflow="visible"/>
	</clipPath>
	
		<linearGradient id="SVGID_69_" gradientUnits="userSpaceOnUse" x1="0" y1="162.9229" x2="1" y2="162.9229" gradientTransform="matrix(0 128.6722 128.6722 0 -20568.8203 -3.1626)">
		<stop  offset="0" style="stop-color:#00ADEE"/>
		<stop  offset="0.3121" style="stop-color:#00ADEE"/>
		<stop  offset="0.4796" style="stop-color:#03A7E9"/>
		<stop  offset="0.6997" style="stop-color:#0B97DA"/>
		<stop  offset="0.948" style="stop-color:#187CC1"/>
		<stop  offset="1" style="stop-color:#1B75BB"/>
	</linearGradient>
	<rect x="384.488" y="93.139" clip-path="url(#SVGID_68_)" fill="url(#SVGID_69_)" width="20.599" height="21.558"/>
</g>
<g>
	<defs>
		<path id="SVGID_70_" d="M413.892,94.771l-0.029,0.031l-0.062,0.061l-0.06,0.061c0,0.03-0.031,0.03-0.031,0.061
			c0,0.029-0.029,0.029-0.029,0.061s-0.029,0.031-0.029,0.06c0,0-0.03,0.031-0.03,0.063c-0.031,0-0.031,0.029-0.031,0.06
			c-0.03,0-0.03,0.03-0.03,0.061v0.06v0.091v0.031l2.27,18.531c0.03,0.393,0.362,0.697,0.756,0.697h14.7
			c0.395,0,0.727-0.305,0.756-0.697l2.088-18.563v-0.028v-0.092c0-0.03,0-0.03,0.031-0.061c-0.031,0-0.031-0.03-0.031-0.061
			c0,0-0.03-0.029-0.03-0.061s-0.029-0.031-0.029-0.06c0,0,0-0.031-0.031-0.063c-0.029,0-0.029-0.029-0.029-0.029
			c-0.031,0-0.031-0.03-0.031-0.03l-0.06-0.061l-0.061-0.06l-0.062-0.063c-0.03,0-0.03-0.028-0.06-0.028c0,0-0.03-0.031-0.061-0.031
			c0,0-0.031-0.031-0.061-0.031c0-0.029-0.03-0.029-0.062-0.029c-0.029-0.029-0.06-0.029-0.091-0.029h-0.03h-0.029h-0.091h-0.061
			c-0.031,0.029-0.06,0.029-0.09,0.029c-0.031,0.029-0.031,0.029-0.061,0.029c0,0-0.03,0.031-0.062,0.031
			c-0.029,0-0.029,0.031-0.06,0.031c0,0.028-0.031,0.028-0.031,0.028c-2.571,1.786-6.049,1.786-8.65,0
			c-1.559-1.088-3.381-1.632-5.204-1.632C417.273,93.139,415.45,93.683,413.892,94.771"/>
	</defs>
	<clipPath id="SVGID_71_">
		<use xlink:href="#SVGID_70_"  overflow="visible"/>
	</clipPath>
	
		<linearGradient id="SVGID_72_" gradientUnits="userSpaceOnUse" x1="0" y1="162.9229" x2="1" y2="162.9229" gradientTransform="matrix(0 128.6722 128.6722 0 -20539.8203 -3.1626)">
		<stop  offset="0" style="stop-color:#00ADEE"/>
		<stop  offset="0.3121" style="stop-color:#00ADEE"/>
		<stop  offset="0.4796" style="stop-color:#03A7E9"/>
		<stop  offset="0.6997" style="stop-color:#0B97DA"/>
		<stop  offset="0.948" style="stop-color:#187CC1"/>
		<stop  offset="1" style="stop-color:#1B75BB"/>
	</linearGradient>
	<rect x="413.56" y="93.139" clip-path="url(#SVGID_71_)" fill="url(#SVGID_72_)" width="20.601" height="21.558"/>
</g>
<g>
	<defs>
		<path id="SVGID_73_" d="M353.321,55.538h24.793l-3.29,27.577h-17.962L353.321,55.538z M352.368,54.7l3.756,29.252h19.443
			l3.491-29.252H352.368z"/>
	</defs>
	<clipPath id="SVGID_74_">
		<use xlink:href="#SVGID_73_"  overflow="visible"/>
	</clipPath>
	
		<linearGradient id="SVGID_75_" gradientUnits="userSpaceOnUse" x1="0" y1="162.9229" x2="1" y2="162.9229" gradientTransform="matrix(0 128.6722 128.6722 0 -20597.9453 -3.1626)">
		<stop  offset="0" style="stop-color:#00ADEE"/>
		<stop  offset="0.3121" style="stop-color:#00ADEE"/>
		<stop  offset="0.4796" style="stop-color:#03A7E9"/>
		<stop  offset="0.6997" style="stop-color:#0B97DA"/>
		<stop  offset="0.948" style="stop-color:#187CC1"/>
		<stop  offset="1" style="stop-color:#1B75BB"/>
	</linearGradient>
	<rect x="352.368" y="54.7" clip-path="url(#SVGID_74_)" fill="url(#SVGID_75_)" width="26.69" height="29.252"/>
</g>
<g>
	<defs>
		<path id="SVGID_76_" d="M382.393,55.538h24.795l-3.29,27.577h-17.964L382.393,55.538z M381.439,54.7l3.756,29.252h19.444
			l3.435-28.784l0.055-0.468H381.439z"/>
	</defs>
	<clipPath id="SVGID_77_">
		<use xlink:href="#SVGID_76_"  overflow="visible"/>
	</clipPath>
	
		<linearGradient id="SVGID_78_" gradientUnits="userSpaceOnUse" x1="0" y1="162.9229" x2="1" y2="162.9229" gradientTransform="matrix(0 128.6722 128.6722 0 -20568.8203 -3.1626)">
		<stop  offset="0" style="stop-color:#00ADEE"/>
		<stop  offset="0.3121" style="stop-color:#00ADEE"/>
		<stop  offset="0.4796" style="stop-color:#03A7E9"/>
		<stop  offset="0.6997" style="stop-color:#0B97DA"/>
		<stop  offset="0.948" style="stop-color:#187CC1"/>
		<stop  offset="1" style="stop-color:#1B75BB"/>
	</linearGradient>
	<rect x="381.439" y="54.7" clip-path="url(#SVGID_77_)" fill="url(#SVGID_78_)" width="26.689" height="29.252"/>
</g>
<g>
	<defs>
		<path id="SVGID_79_" d="M411.466,55.538h24.793l-3.291,27.577h-17.962L411.466,55.538z M410.512,54.7l3.757,29.252h19.444
			l3.491-29.252H410.512z"/>
	</defs>
	<clipPath id="SVGID_80_">
		<use xlink:href="#SVGID_79_"  overflow="visible"/>
	</clipPath>
	
		<linearGradient id="SVGID_81_" gradientUnits="userSpaceOnUse" x1="0" y1="162.9229" x2="1" y2="162.9229" gradientTransform="matrix(0 128.6722 128.6722 0 -20539.8203 -3.1626)">
		<stop  offset="0" style="stop-color:#00ADEE"/>
		<stop  offset="0.3121" style="stop-color:#00ADEE"/>
		<stop  offset="0.4796" style="stop-color:#03A7E9"/>
		<stop  offset="0.6997" style="stop-color:#0B97DA"/>
		<stop  offset="0.948" style="stop-color:#187CC1"/>
		<stop  offset="1" style="stop-color:#1B75BB"/>
	</linearGradient>
	<rect x="410.512" y="54.7" clip-path="url(#SVGID_80_)" fill="url(#SVGID_81_)" width="26.692" height="29.252"/>
</g>
<g>
	<defs>
		<path id="SVGID_82_" d="M353.321,22.674h24.793l-3.29,27.576h-17.962L353.321,22.674z M352.368,21.836l3.756,29.252h19.443
			l3.491-29.252H352.368z"/>
	</defs>
	<clipPath id="SVGID_83_">
		<use xlink:href="#SVGID_82_"  overflow="visible"/>
	</clipPath>
	
		<linearGradient id="SVGID_84_" gradientUnits="userSpaceOnUse" x1="0" y1="162.9229" x2="1" y2="162.9229" gradientTransform="matrix(0 128.6722 128.6722 0 -20597.9453 -3.1626)">
		<stop  offset="0" style="stop-color:#00ADEE"/>
		<stop  offset="0.3121" style="stop-color:#00ADEE"/>
		<stop  offset="0.4796" style="stop-color:#03A7E9"/>
		<stop  offset="0.6997" style="stop-color:#0B97DA"/>
		<stop  offset="0.948" style="stop-color:#187CC1"/>
		<stop  offset="1" style="stop-color:#1B75BB"/>
	</linearGradient>
	<rect x="352.368" y="21.836" clip-path="url(#SVGID_83_)" fill="url(#SVGID_84_)" width="26.69" height="29.252"/>
</g>
<g>
	<defs>
		<path id="SVGID_85_" d="M382.393,22.674h24.795l-3.29,27.576h-17.964L382.393,22.674z M381.439,21.836l3.756,29.252h19.444
			l3.435-28.783l0.055-0.469H381.439z"/>
	</defs>
	<clipPath id="SVGID_86_">
		<use xlink:href="#SVGID_85_"  overflow="visible"/>
	</clipPath>
	
		<linearGradient id="SVGID_87_" gradientUnits="userSpaceOnUse" x1="0" y1="162.9229" x2="1" y2="162.9229" gradientTransform="matrix(0 128.6722 128.6722 0 -20568.8203 -3.1626)">
		<stop  offset="0" style="stop-color:#00ADEE"/>
		<stop  offset="0.3121" style="stop-color:#00ADEE"/>
		<stop  offset="0.4796" style="stop-color:#03A7E9"/>
		<stop  offset="0.6997" style="stop-color:#0B97DA"/>
		<stop  offset="0.948" style="stop-color:#187CC1"/>
		<stop  offset="1" style="stop-color:#1B75BB"/>
	</linearGradient>
	<rect x="381.439" y="21.836" clip-path="url(#SVGID_86_)" fill="url(#SVGID_87_)" width="26.689" height="29.252"/>
</g>
<g>
	<defs>
		<path id="SVGID_88_" d="M411.466,22.674h24.793l-3.291,27.576h-17.962L411.466,22.674z M410.512,21.836l3.757,29.252h19.444
			l3.491-29.252H410.512z"/>
	</defs>
	<clipPath id="SVGID_89_">
		<use xlink:href="#SVGID_88_"  overflow="visible"/>
	</clipPath>
	
		<linearGradient id="SVGID_90_" gradientUnits="userSpaceOnUse" x1="0" y1="162.9229" x2="1" y2="162.9229" gradientTransform="matrix(0 128.6722 128.6722 0 -20539.8203 -3.1626)">
		<stop  offset="0" style="stop-color:#00ADEE"/>
		<stop  offset="0.3121" style="stop-color:#00ADEE"/>
		<stop  offset="0.4796" style="stop-color:#03A7E9"/>
		<stop  offset="0.6997" style="stop-color:#0B97DA"/>
		<stop  offset="0.948" style="stop-color:#187CC1"/>
		<stop  offset="1" style="stop-color:#1B75BB"/>
	</linearGradient>
	<rect x="410.512" y="21.836" clip-path="url(#SVGID_89_)" fill="url(#SVGID_90_)" width="26.692" height="29.252"/>
</g>
<g>
	<defs>
		<path id="SVGID_91_" d="M353.321,88.4h24.793l-3.29,27.577h-17.962L353.321,88.4z M352.368,87.563l3.756,29.253h19.443
			l3.491-29.253H352.368z"/>
	</defs>
	<clipPath id="SVGID_92_">
		<use xlink:href="#SVGID_91_"  overflow="visible"/>
	</clipPath>
	
		<linearGradient id="SVGID_93_" gradientUnits="userSpaceOnUse" x1="0" y1="162.9229" x2="1" y2="162.9229" gradientTransform="matrix(0 128.6722 128.6722 0 -20597.9453 -3.1626)">
		<stop  offset="0" style="stop-color:#00ADEE"/>
		<stop  offset="0.3121" style="stop-color:#00ADEE"/>
		<stop  offset="0.4796" style="stop-color:#03A7E9"/>
		<stop  offset="0.6997" style="stop-color:#0B97DA"/>
		<stop  offset="0.948" style="stop-color:#187CC1"/>
		<stop  offset="1" style="stop-color:#1B75BB"/>
	</linearGradient>
	<rect x="352.368" y="87.563" clip-path="url(#SVGID_92_)" fill="url(#SVGID_93_)" width="26.69" height="29.253"/>
</g>
<g>
	<defs>
		<path id="SVGID_94_" d="M382.393,88.4h24.795l-3.29,27.577h-17.964L382.393,88.4z M381.439,87.563l3.756,29.253h19.444
			l3.435-28.783l0.055-0.47H381.439z"/>
	</defs>
	<clipPath id="SVGID_95_">
		<use xlink:href="#SVGID_94_"  overflow="visible"/>
	</clipPath>
	
		<linearGradient id="SVGID_96_" gradientUnits="userSpaceOnUse" x1="0" y1="162.9229" x2="1" y2="162.9229" gradientTransform="matrix(0 128.6722 128.6722 0 -20568.8203 -3.1626)">
		<stop  offset="0" style="stop-color:#00ADEE"/>
		<stop  offset="0.3121" style="stop-color:#00ADEE"/>
		<stop  offset="0.4796" style="stop-color:#03A7E9"/>
		<stop  offset="0.6997" style="stop-color:#0B97DA"/>
		<stop  offset="0.948" style="stop-color:#187CC1"/>
		<stop  offset="1" style="stop-color:#1B75BB"/>
	</linearGradient>
	<rect x="381.439" y="87.563" clip-path="url(#SVGID_95_)" fill="url(#SVGID_96_)" width="26.689" height="29.253"/>
</g>
<g>
	<defs>
		<path id="SVGID_97_" d="M411.466,88.4h24.793l-3.291,27.577h-17.962L411.466,88.4z M410.512,87.563l3.757,29.253h19.444
			l3.491-29.253H410.512z"/>
	</defs>
	<clipPath id="SVGID_98_">
		<use xlink:href="#SVGID_97_"  overflow="visible"/>
	</clipPath>
	
		<linearGradient id="SVGID_99_" gradientUnits="userSpaceOnUse" x1="0" y1="162.9229" x2="1" y2="162.9229" gradientTransform="matrix(0 128.6722 128.6722 0 -20539.8203 -3.1626)">
		<stop  offset="0" style="stop-color:#00ADEE"/>
		<stop  offset="0.3121" style="stop-color:#00ADEE"/>
		<stop  offset="0.4796" style="stop-color:#03A7E9"/>
		<stop  offset="0.6997" style="stop-color:#0B97DA"/>
		<stop  offset="0.948" style="stop-color:#187CC1"/>
		<stop  offset="1" style="stop-color:#1B75BB"/>
	</linearGradient>
	<rect x="410.512" y="87.563" clip-path="url(#SVGID_98_)" fill="url(#SVGID_99_)" width="26.692" height="29.253"/>
</g>
<g>
	<defs>
		<path id="SVGID_100_" d="M598.137,63.174c-0.449-0.16-1.044-0.329-1.684-0.512c-0.861-0.245-2.456-0.699-3.239-1.108
			c1-0.144,3.085-0.085,5.12,0.17c0.044,0.529,0.094,1.056,0.121,1.589C598.359,63.262,598.254,63.216,598.137,63.174
			 M563.426,54.453c1.956-1.737,4.005-2.901,4.955-2.839c0.193,0.012,0.27,0.073,0.318,0.13c0.285,0.331,0.205,0.875,0.06,1.606
			c-0.129,0.66-0.275,1.408,0.209,1.965c0.304,0.349,0.757,0.508,1.368,0.471c1.497-0.088,2.637-0.556,3.299-1.353
			c0.273-0.33,0.459-0.709,0.546-1.124c0.312,0.737,0.638,1.155,1.226,1.155c0.197,0,0.702,0,1.671-1.06
			c0.439,1.098,1.222,2.315,2.532,2.386c1.012,0.056,2.235,0.044,3.043,0.026v2.302c-2.241,0.217-4.704,0.278-5.251,0.004
			c-1.614-0.806-3.376,0.261-3.38,0.267c-0.797,0.392-2.726,1.094-3.589,0.756c-0.159-0.063-0.25-0.15-0.308-0.304
			c-0.164-0.422-0.302-0.841-0.432-1.237c-0.455-1.382-1.009-3.064-2.558-3.064c-0.193,0-0.403,0.026-0.63,0.082
			c-0.423,0.107-1.248,0.191-2.119,0.281c-0.649,0.067-1.264,0.133-1.836,0.208C562.833,54.937,563.125,54.721,563.426,54.453
			 M570.932,39.654c0.646-0.452,0.995-1.227,1.067-2.368c0.145-2.31,0.468-3.636,0.708-4.31c0.184,0.681,0.372,1.728,0.475,2.741
			c0.045,0.438,0.393,0.788,0.827,0.756c0.001,0,0.068,0.005,0.1,0.043c0.052,0.065,0.099,0.265,0.058,0.612
			c-0.19,1.521-1.474,4.331-2.806,4.331c-0.599,0-1.148-0.533-1.681-1.048c-0.129-0.126-0.261-0.252-0.395-0.372
			c0.091,0.006,0.182,0.01,0.271,0.01C570.051,40.049,570.52,39.942,570.932,39.654 M543.848,41.218
			c1.37-0.734,1.779-1.505,2.251-2.398c0.583-1.102,1.38-2.612,4.578-5.371c5.679-4.904,9.993-14.138,10.19-16.44
			c7.979,2.107,15.192,6.118,21.12,11.519c-0.704,1.243-1.634,2.367-2.387,2.231c-0.275-0.05-0.286-0.052-0.32-0.79
			c-0.05-1.079-0.134-2.882-3.106-3.466c-4.24-0.834-10.26,1.087-11.669,4.812c-0.97,2.569-1.065,5.081-0.247,6.557
			c0.424,0.765,1.073,1.253,1.883,1.415c0.34,0.069,0.708,0.176,1.098,0.292c-0.238,0.141-0.451,0.362-0.638,0.659
			c-1.702,2.725-3.73,4.85-4.34,4.86c-1.062,0-1.907,0.938-2.264,2.512c-0.144,0.626-0.231,1.366-0.046,1.905
			c-0.01,0.01-0.02,0.021-0.029,0.031c-0.648-0.332-1.675-0.716-2.503-0.395c-0.517,0.201-0.883,0.638-1.032,1.233
			c-0.37,1.476-0.03,3.496,0.755,4.502c0.51,0.654,1.085,0.79,1.479,0.79c0.225,0,0.451,0.026,0.681,0.05
			c0.084,0.009,0.172,0.018,0.262,0.026c-0.694,0.264-1.197,0.609-1.473,1.089l-0.363,0.643c-0.651,1.166-1.326,2.371-2.06,2.958
			l-0.154,0.122c-1.009,0.8-2.534,2.011-3.176,4.793c-0.686,2.975,0.812,9.381,4.668,10.324c2.511,0.615,5.591,0.348,7.841,0.151
			c0.763-0.065,1.42-0.123,1.871-0.127c0.899-0.001,1.346,0.462,1.58,3.057c0.122,1.356,0.688,2.202,1.188,2.948
			c0.424,0.635,0.759,1.136,0.835,1.91c0.083,0.828,0.015,1.395-0.071,2.114c-0.111,0.917-0.247,2.059-0.132,4.113
			c0.046,0.838,0.024,1.75,0.003,2.716c-0.07,3.174-0.151,6.771,2.527,7.918c0.397,0.172,0.737,0.346,1.039,0.501
			c0.772,0.398,1.396,0.649,2.009,0.649c1.334-0.001,2.612-1.191,5.236-4.649c4.686-6.175,5.648-9.17,6.419-12.443
			c0.795-3.371,3.22-6.406,5.138-7.8c1.903-1.383,3.263-3.555,2.906-4.648c-0.141-0.434-0.525-0.716-0.977-0.716
			c-0.09,0-0.275,0.018-0.529,0.048c-1.343,0.158-5.427,0.641-6.592-1.897c-0.088-0.19-0.178-0.381-0.27-0.572
			c0.834,1.155,1.699,1.892,2.655,1.758c4.522-0.646,7.119-1.576,7.715-2.768c0.134-0.267,0.442-0.638,0.741-0.998
			c0.124-0.148,0.248-0.299,0.366-0.45c-0.325,27.598-22.867,49.951-50.541,49.951c-27.144,0-49.352-21.506-50.502-48.371
			c0.698,0.161,1.477,0.098,2.285,0.031c1.217-0.102,2.595-0.216,4.229,0.267c3.141,0.93,3.237,1.378,3.472,2.462
			c0.147,0.685,0.349,1.622,1.11,2.838c0.672,1.076,1.668,1.755,2.877,1.961c0.283,0.047,0.567,0.069,0.852,0.069
			c2.193,0,4.346-1.3,4.994-1.819c0.566-0.451,0.533-0.935,0.465-1.182c-0.218-0.781-1.077-0.893-2.375-1.063
			c-0.461-0.059-0.997-0.129-1.432-0.24c0.383-0.36,0.827-0.841,0.827-1.523c0-0.915-0.668-1.347-1.204-1.693
			c-0.439-0.286-0.939-0.608-1.352-1.266c-0.3-0.48-0.248-0.589-0.024-1.048c0.233-0.481,0.587-1.206,0.337-2.327
			c-0.142-0.631-0.532-0.876-0.754-0.966c-0.708-0.289-1.4,0.161-2.201,0.682c-0.569,0.371-1.431,0.926-1.846,0.802
			c-0.231-0.072-0.414-0.441-0.502-0.656c-0.262-0.634-0.108-0.981,0.029-1.186c0.8-1.197,3.952-1.693,5.46-1.693
			c0.315,0,0.999,0.57,1.5,0.987c1.016,0.846,2.282,1.9,3.651,1.385c1.071-0.402,1.858-2.062,3.269-5.208
			c1.066-2.379,2.274-5.075,3.504-6.304c1.562-1.562,3.171-1.451,4.73-1.344c0.754,0.052,1.469,0.102,2.138-0.047
			c0.564-0.126,1.253-0.35,1.577-0.981c0.384-0.748,0.052-1.527-0.45-2.707c-0.086-0.204-0.181-0.425-0.28-0.665
			c0.367,0.046,0.781,0.026,1.233-0.109c0.068-0.02,0.105-0.023,0.111-0.028c0.121,0.102,0.305,0.575,0.415,0.862
			c0.401,1.041,1.063,2.791,3.334,2.636c0.872-0.059,1.502-0.359,1.872-0.893c0.682-0.986,0.271-2.346-0.25-4.069
			c-0.332-1.105-0.712-2.357-0.841-3.651c-0.154-1.553-0.632-2.548-1.459-3.043c-1.1-0.658-2.331-0.147-3.068,0.157
			c-0.003,0.001-0.005,0.003-0.009,0.004c-0.126-0.268-0.28-0.683-0.401-1.012c-0.44-1.178-0.937-2.513-1.864-3.215
			c-0.339-0.258-0.742-0.354-1.137-0.27c-0.906,0.193-1.48,1.236-2.145,2.444c-0.346,0.628-1.063,1.935-1.41,2.003
			c-1.645-0.549-2.621,0.977-3.121,1.834c-0.254-0.33-0.44-0.755-0.554-2.131c-0.077-0.946,3.286-3.157,5.093-4.344
			c1.986-1.306,3.703-2.434,4.297-3.423c0.24-0.403,0.689-1.151,0.187-1.748c-0.5-0.588-1.192-0.314-1.995,0
			c-0.58,0.227-1.431,0.56-2.053,0.504c0.1-0.331,0.439-0.878,0.566-1.079c0.229-0.372,0.616-0.995,0.062-1.493
			c-0.559-0.501-1.159-0.033-1.447,0.192c-1.357,1.066-4.81,2.346-5.953,2.346c-0.204,0-0.336-0.004-0.42-0.012
			c-0.038-0.207-0.063-0.599-0.09-0.98c-0.019-0.251-0.039-0.538-0.065-0.862c-0.06-0.723-0.391-1.338-0.952-1.779
			c-0.213-0.166-0.451-0.298-0.704-0.406c1.65-1.124,3.376-2.145,5.158-3.071c0.634,0.624,2.238,1.55,6.811,2.512
			c1.233,0.259,2.076,0.648,2.752,0.962c0.62,0.286,1.168,0.503,1.68,0.503c0.761,0,1.441-0.477,2.158-1.912
			c0.445-0.888,1.666-2.248,2.938-3.593c-0.091,0.268-0.119,0.526-0.064,0.771c0.239,1.08,0.723,2.026,1.109,2.786
			c0.149,0.295,0.341,0.671,0.434,0.917c-0.102,0.069-0.231,0.15-0.338,0.217c-0.699,0.437-1.658,1.034-1.83,2.119
			c-0.11,0.705,0.154,1.447,0.789,2.203c1.098,1.308,0.8,2.257,0.422,3.458c-0.199,0.631-0.403,1.281-0.403,2.003
			c0,0.353-0.054,0.926-0.108,1.534c-0.266,2.895-0.364,5.004,0.816,5.786c0.203,0.136,0.487,0.254,0.853,0.254
			C543.06,41.527,543.424,41.444,543.848,41.218 M494.036,65.89c0,29.784,24.144,53.928,53.927,53.928
			c29.785,0,53.928-24.144,53.928-53.928c0-29.783-24.143-53.927-53.928-53.927C518.18,11.963,494.036,36.107,494.036,65.89"/>
	</defs>
	<clipPath id="SVGID_101_">
		<use xlink:href="#SVGID_100_"  overflow="visible"/>
	</clipPath>
	
		<linearGradient id="SVGID_102_" gradientUnits="userSpaceOnUse" x1="0" y1="162.9229" x2="1" y2="162.9229" gradientTransform="matrix(0 -148.6514 -148.6514 0 24766.6992 144.2573)">
		<stop  offset="0" style="stop-color:#009345"/>
		<stop  offset="0.0235" style="stop-color:#009345"/>
		<stop  offset="0.1167" style="stop-color:#069545"/>
		<stop  offset="0.2384" style="stop-color:#169B44"/>
		<stop  offset="0.3758" style="stop-color:#31A543"/>
		<stop  offset="0.5249" style="stop-color:#57B241"/>
		<stop  offset="0.6817" style="stop-color:#87C33F"/>
		<stop  offset="0.6952" style="stop-color:#8BC53F"/>
		<stop  offset="1" style="stop-color:#8BC53F"/>
	</linearGradient>
	<rect x="494.036" y="11.963" clip-path="url(#SVGID_101_)" fill="url(#SVGID_102_)" width="107.854" height="107.854"/>
</g>
<g>
	<defs>
		<path id="SVGID_103_" d="M520.479,70.084c-0.945,1.592-1.95,3.169-3.821,4.96c-0.414,0.396-1.004,0.781-1.574,1.152
			c-1.286,0.84-2.617,1.708-2.766,3.141c-0.099,0.953,0.362,1.927,1.413,2.976c1.158,1.158,2.523,1.892,3.846,2.603
			c2.581,1.385,4.81,2.584,5.425,6.631c1.143,7.551,6.005,14.792,8.041,17.554c1.49,2.021,3.081,3.134,4.478,3.134
			c0.593,0,1.13-0.208,1.513-0.583c0.378-0.371,0.587-0.88,0.587-1.433c0-0.408,0.037-0.833,0.078-1.284
			c0.096-1.069,0.206-2.284-0.092-3.921c-0.4-2.208-0.382-3.262,0.075-4.023c0.078-0.134,0.257-0.186,0.616-0.264
			c0.402-0.089,0.954-0.209,1.262-0.734c0.213-0.364,0.238-0.803,0.073-1.34c-0.098-0.321-0.221-0.625-0.34-0.92
			c-0.392-0.958-0.587-1.44,0.173-2.327c1.442-1.679,3.777-5.479,4.211-8.303c0.108-0.701,0.459-1.474,0.798-2.223
			c0.568-1.25,1.155-2.545,0.632-3.687c-0.322-0.701-0.983-1.19-2.023-1.496c-2.196-0.645-4.447-2.281-6.433-3.723
			c-0.96-0.697-1.867-1.356-2.682-1.836c-2.278-1.345-5.941-1.984-6.801-2.12c-0.621-0.392-1.205-0.824-1.773-1.243
			c-1.272-0.943-2.278-1.686-3.279-1.686C521.639,69.088,520.969,69.261,520.479,70.084"/>
	</defs>
	<clipPath id="SVGID_104_">
		<use xlink:href="#SVGID_103_"  overflow="visible"/>
	</clipPath>
	
		<linearGradient id="SVGID_105_" gradientUnits="userSpaceOnUse" x1="0" y1="162.9229" x2="1" y2="162.9229" gradientTransform="matrix(0 -148.6514 -148.6514 0 24747.5742 144.2573)">
		<stop  offset="0" style="stop-color:#009345"/>
		<stop  offset="0.0235" style="stop-color:#009345"/>
		<stop  offset="0.1167" style="stop-color:#069545"/>
		<stop  offset="0.2384" style="stop-color:#169B44"/>
		<stop  offset="0.3758" style="stop-color:#31A543"/>
		<stop  offset="0.5249" style="stop-color:#57B241"/>
		<stop  offset="0.6817" style="stop-color:#87C33F"/>
		<stop  offset="0.6952" style="stop-color:#8BC53F"/>
		<stop  offset="1" style="stop-color:#8BC53F"/>
	</linearGradient>
	<rect x="512.219" y="69.088" clip-path="url(#SVGID_104_)" fill="url(#SVGID_105_)" width="33.41" height="43.146"/>
</g>
<g>
	<defs>
		<path id="SVGID_106_" d="M537.613,24.77c-0.084,0.043-2.083,1.066-2.083,3.18c0,0.423-0.611,1.187-1.06,1.744
			c-0.783,0.98-1.971,2.462-0.66,3.553c0.319,0.266,0.76,0.407,1.271,0.407c1.246,0,3.011-0.857,3.974-2.494
			c0.712-1.208,1.232-3.239-0.328-6.045c-0.154-0.276-0.44-0.433-0.737-0.433C537.863,24.682,537.734,24.71,537.613,24.77"/>
	</defs>
	<clipPath id="SVGID_107_">
		<use xlink:href="#SVGID_106_"  overflow="visible"/>
	</clipPath>
	
		<linearGradient id="SVGID_108_" gradientUnits="userSpaceOnUse" x1="0" y1="162.9229" x2="1" y2="162.9229" gradientTransform="matrix(0 -148.6514 -148.6514 0 24755.1992 144.2573)">
		<stop  offset="0" style="stop-color:#009345"/>
		<stop  offset="0.0235" style="stop-color:#009345"/>
		<stop  offset="0.1167" style="stop-color:#069545"/>
		<stop  offset="0.2384" style="stop-color:#169B44"/>
		<stop  offset="0.3758" style="stop-color:#31A543"/>
		<stop  offset="0.5249" style="stop-color:#57B241"/>
		<stop  offset="0.6817" style="stop-color:#87C33F"/>
		<stop  offset="0.6952" style="stop-color:#8BC53F"/>
		<stop  offset="1" style="stop-color:#8BC53F"/>
	</linearGradient>
	<rect x="532.5" y="24.682" clip-path="url(#SVGID_107_)" fill="url(#SVGID_108_)" width="7.787" height="8.972"/>
</g>
<g>
	<defs>
		<path id="SVGID_109_" d="M556.597,31.994c-0.737,0.182-4.469,1.188-5.405,3.057c-0.548,1.094-0.679,2.928,0.05,4.104
			c0.434,0.702,1.118,1.089,1.928,1.089c0.487,0,1.019-0.142,1.58-0.423c3.304-1.652,2.909-6.859,2.889-7.079
			c-0.021-0.246-0.146-0.471-0.347-0.615c-0.146-0.104-0.319-0.157-0.493-0.157C556.731,31.97,556.663,31.978,556.597,31.994"/>
	</defs>
	<clipPath id="SVGID_110_">
		<use xlink:href="#SVGID_109_"  overflow="visible"/>
	</clipPath>
	
		<linearGradient id="SVGID_111_" gradientUnits="userSpaceOnUse" x1="0" y1="162.9219" x2="1" y2="162.9219" gradientTransform="matrix(0 -148.6514 -148.6514 0 24772.9492 144.2573)">
		<stop  offset="0" style="stop-color:#009345"/>
		<stop  offset="0.0235" style="stop-color:#009345"/>
		<stop  offset="0.1167" style="stop-color:#069545"/>
		<stop  offset="0.2384" style="stop-color:#169B44"/>
		<stop  offset="0.3758" style="stop-color:#31A543"/>
		<stop  offset="0.5249" style="stop-color:#57B241"/>
		<stop  offset="0.6817" style="stop-color:#87C33F"/>
		<stop  offset="0.6952" style="stop-color:#8BC53F"/>
		<stop  offset="1" style="stop-color:#8BC53F"/>
	</linearGradient>
	<rect x="550.513" y="31.97" clip-path="url(#SVGID_110_)" fill="url(#SVGID_111_)" width="7.54" height="8.274"/>
</g>
<g>
	<defs>
		<rect id="SVGID_112_" width="602.239" height="162.923"/>
	</defs>
	<clipPath id="SVGID_113_">
		<use xlink:href="#SVGID_112_"  overflow="visible"/>
	</clipPath>
	<path clip-path="url(#SVGID_113_)" fill="#FFFFFF" d="M547.964,13.688c28.775,0,52.104,23.328,52.104,52.104
		c0,28.776-23.328,52.104-52.104,52.104c-28.776,0-52.104-23.327-52.104-52.104C495.859,37.016,519.188,13.688,547.964,13.688
		 M547.964,11.517c-29.928,0-54.275,24.348-54.275,54.275c0,29.928,24.348,54.275,54.275,54.275
		c29.927,0,54.274-24.348,54.274-54.275C602.238,35.865,577.891,11.517,547.964,11.517"/>
	<path clip-path="url(#SVGID_113_)" fill="#0086FA" d="M131.623,65.812C131.623,29.464,102.158,0,65.811,0
		C29.465,0,0,29.464,0,65.812c0,36.347,29.465,65.813,65.811,65.813C102.158,131.624,131.623,102.158,131.623,65.812"/>
	<path clip-path="url(#SVGID_113_)" fill="#808184" d="M310.429,72.778c-0.849-0.877-1.273-2.028-1.273-3.455
		c0-1.427,0.445-2.581,1.332-3.464c0.888-0.882,2-1.322,3.337-1.322c1.338,0,2.449,0.44,3.338,1.322
		c0.888,0.883,1.332,2.034,1.332,3.456c0,1.421-0.465,2.573-1.392,3.454c-0.926,0.883-2.059,1.324-3.396,1.324
		S311.276,73.655,310.429,72.778 M313.707,72.829c0.864,0,1.614-0.312,2.25-0.936c0.635-0.623,0.951-1.485,0.951-2.587
		c0-1.101-0.303-1.96-0.909-2.579c-0.606-0.617-1.347-0.927-2.217-0.927s-1.598,0.31-2.182,0.927
		c-0.585,0.619-0.877,1.481-0.877,2.588s0.281,1.969,0.842,2.586C312.128,72.52,312.842,72.829,313.707,72.829"/>
	<path clip-path="url(#SVGID_113_)" fill="#808184" d="M321.875,64.688v1.567c0.551-1.146,1.488-1.718,2.813-1.718v1.601h-0.404
		c-0.785,0-1.385,0.205-1.795,0.615c-0.409,0.41-0.614,1.121-0.614,2.132v5.056h-1.534v-9.253H321.875z"/>
	<path clip-path="url(#SVGID_113_)" fill="#808184" d="M149.335,65.278h8.765v1.349h-8.765V65.278z M149.335,68.936h8.765v1.332
		h-8.765V68.936z"/>
	<path clip-path="url(#SVGID_113_)" fill="#FFFFFF" d="M46.38,61.889c0,2.103-0.787,3.933-2.358,5.491
		c-1.572,1.558-3.611,2.452-6.116,2.68v3.078h-2.174V70.06c-2.702-0.178-4.839-0.982-6.411-2.414
		c-1.572-1.431-2.357-3.388-2.357-5.872h6.705c0.147,1.698,0.835,2.712,2.063,3.041v-5.967c-1.13-0.278-2.217-0.608-3.261-0.988
		c-1.044-0.38-1.701-0.659-1.97-0.836c-0.271-0.177-0.633-0.418-1.087-0.722c-0.455-0.304-0.799-0.621-1.032-0.95
		c-0.234-0.329-0.486-0.709-0.755-1.141c-0.443-0.76-0.663-1.836-0.663-3.23c0-2.305,0.834-4.187,2.504-5.644
		c1.67-1.456,3.758-2.299,6.264-2.527v-3.078h2.174v3.078c2.579,0.152,4.617,0.88,6.116,2.185c1.498,1.305,2.284,3.275,2.358,5.91
		h-6.485c-0.147-1.393-0.81-2.331-1.989-2.812v6.005c2.456,0.709,4.064,1.254,4.826,1.634C45.164,56.999,46.38,59.05,46.38,61.889
		 M35.732,48.017c-1.425,0.279-2.137,1.077-2.137,2.394c0,1.318,0.712,2.294,2.137,2.926V48.017z M37.906,64.814
		c1.228-0.354,1.842-1.14,1.842-2.356c0-1.217-0.614-2.141-1.842-2.775V64.814z"/>
	<path clip-path="url(#SVGID_113_)" fill="#FFFFFF" d="M59.824,69.831v-4.94H47.445v-5.245l11.642-17.178h7.037v16.798h3.022v5.625
		h-3.022v4.94H59.824z M60.266,59.266v-9.425l-5.821,9.425H60.266z"/>
	<path clip-path="url(#SVGID_113_)" fill="#FFFFFF" d="M79.575,64.32h2.248v5.511h-3.206c-2.309,0-4.096-0.526-5.36-1.577
		c-1.266-1.051-1.898-2.857-1.898-5.416v-8.817h-1.916v-5.397h1.916v-5.169h6.3v5.169h4.127v5.397h-4.127v8.817
		C77.659,63.826,78.298,64.32,79.575,64.32"/>
	<path clip-path="url(#SVGID_113_)" fill="#FFFFFF" d="M90.363,48.624v3.117c1.302-2.23,3.377-3.345,6.227-3.345
		c2.358,0,4.267,0.811,5.729,2.433c1.461,1.621,2.192,3.826,2.192,6.612v12.39h-6.263V58.315c0-1.368-0.35-2.425-1.05-3.173
		c-0.7-0.747-1.665-1.121-2.893-1.121s-2.192,0.374-2.892,1.121c-0.699,0.748-1.05,1.805-1.05,3.173v11.516h-6.3V48.624H90.363z"/>
	<path clip-path="url(#SVGID_113_)" fill="#808184" d="M458.796,72.778c-0.849-0.877-1.273-2.028-1.273-3.455
		c0-1.427,0.445-2.581,1.332-3.464c0.888-0.882,2-1.322,3.337-1.322c1.338,0,2.449,0.44,3.338,1.322
		c0.888,0.883,1.332,2.034,1.332,3.456c0,1.421-0.465,2.573-1.392,3.454c-0.926,0.883-2.059,1.324-3.396,1.324
		S459.644,73.655,458.796,72.778 M462.074,72.829c0.864,0,1.614-0.312,2.25-0.936c0.635-0.623,0.952-1.485,0.952-2.587
		c0-1.101-0.304-1.96-0.91-2.579c-0.606-0.617-1.347-0.927-2.216-0.927c-0.871,0-1.599,0.31-2.183,0.927
		c-0.585,0.619-0.877,1.481-0.877,2.588s0.281,1.969,0.842,2.586C460.495,72.52,461.209,72.829,462.074,72.829"/>
	<path clip-path="url(#SVGID_113_)" fill="#808184" d="M470.242,64.688v1.567c0.551-1.146,1.488-1.718,2.813-1.718v1.601h-0.404
		c-0.785,0-1.385,0.205-1.795,0.615c-0.409,0.41-0.614,1.121-0.614,2.132v5.056h-1.534v-9.253H470.242z"/>
	<path clip-path="url(#SVGID_113_)" fill="#808184" d="M192.556,139.514c-0.252,0-0.35,0-0.35,0.336v0.925
		c0,0.672,0.21,0.686,1.121,0.728c0.546,0.028,0.658,0.225,0.658,0.448c0,0.435-0.504,0.435-0.966,0.435
		c-0.196,0-0.505-0.042-1.85-0.042c-2.801,0-3.095,0.042-3.25,0.042c-0.153,0-0.559,0-0.559-0.393c0-0.364,0.252-0.392,0.854-0.462
		c0.7-0.084,0.952-0.238,0.952-0.841v-0.826c0-0.322-0.07-0.35-0.378-0.35h-2.605h-0.267c-0.378,0-0.546,0-0.546-0.379
		c0-0.546,0-0.574,0.308-0.938c1.443-1.751,2.9-3.487,4.343-5.238c0.322-0.393,0.35-0.435,0.77-0.435h1.204
		c0.169,0,0.365,0,0.365,0.154c0,0.084-0.126,0.196-0.28,0.336c-1.737,1.569-3.866,3.614-5.001,4.959
		c-0.154,0.182-0.448,0.476-0.448,0.518c0,0.028,0.056,0.028,0.14,0.028h2.031c0.364,0,0.364-0.126,0.364-0.378v-1.345
		c0-0.28,0.014-0.351,0.294-0.462c0.309-0.127,2.466-1.079,2.62-1.079c0.084,0,0.126,0.07,0.126,0.336v2.62
		c0,0.294,0.028,0.308,0.336,0.308h1.107c0.35,0,0.35,0.028,0.35,0.519c0,0.435,0,0.477-0.28,0.477H192.556z"/>
	<path clip-path="url(#SVGID_113_)" fill="#808184" d="M203.113,138.841c0,2.76-4.118,4.385-6.275,4.385
		c-0.252,0-2.158,0-2.158-1.135c0-0.854,0.954-1.051,1.373-1.051c0.813,0,1.177,0.448,1.373,0.673
		c0.42,0.49,0.533,0.546,0.756,0.546c0.673,0,1.499-0.883,1.499-2.087c0-1.233-0.784-2.031-1.891-2.031
		c-0.588,0-1.092,0.252-1.372,0.406c-0.336,0.168-0.435,0.196-0.533,0.196c-0.196,0-0.42-0.168-0.42-0.406
		c0-0.099,0.014-0.183,0.085-0.28c0.084-0.126,0.251-0.267,0.559-0.49c1.443-1.022,2.003-1.415,2.003-2.27
		c0-0.616-0.476-0.798-0.784-0.798c-0.477,0-0.84,0.28-1.219,0.532c-0.168,0.111-0.28,0.153-0.475,0.153
		c-0.225,0-0.337-0.098-0.337-0.322c0-0.392,1.176-1.498,3.502-1.498c0.854,0,2.577,0.126,2.577,1.387
		c0,0.645-0.518,1.106-1.092,1.414c-0.393,0.211-0.799,0.337-1.121,0.421c-0.098,0.027-0.35,0.098-0.35,0.182
		c0,0.028,0.028,0.07,0.084,0.07s0.742-0.252,1.443-0.252c1.863,0,2.773,1.05,2.773,2.241V138.841z"/>
	<path clip-path="url(#SVGID_113_)" fill="#808184" d="M205.62,138.015c-1.415,0-2.227-1.093-2.227-2.312
		c0-1.303,0.925-2.312,2.241-2.312c1.303,0,2.241,0.953,2.241,2.312c0,1.232-0.826,2.312-2.241,2.312H205.62z M204.906,142.497
		c0-0.07,0.112-0.225,0.182-0.336l5.448-8.629c0.071-0.099,0.169-0.141,0.351-0.141h0.658c0.126,0,0.197,0,0.197,0.07
		c0,0.084-0.113,0.238-0.182,0.351l-5.449,8.628c-0.071,0.1-0.168,0.142-0.351,0.142h-0.658c-0.126,0-0.196,0-0.196-0.071V142.497z
		 M205.676,137.454c0.406,0,0.406-0.994,0.406-1.751s0-1.751-0.448-1.751c-0.448,0-0.448,0.994-0.448,1.751s0,1.751,0.476,1.751
		H205.676z M211,142.582c-1.415,0-2.227-1.094-2.227-2.313c0-1.303,0.925-2.311,2.241-2.311c1.303,0,2.241,0.952,2.241,2.311
		c0,1.232-0.826,2.313-2.241,2.313H211z M211.055,142.021c0.406,0,0.406-0.994,0.406-1.751c0-0.756,0-1.751-0.448-1.751
		c-0.448,0-0.448,0.995-0.448,1.751c0,0.757,0,1.751,0.476,1.751H211.055z"/>
	<path clip-path="url(#SVGID_113_)" fill="#808184" d="M219.26,141.377c-0.704-0.729-1.056-1.685-1.056-2.87
		s0.369-2.145,1.106-2.877c0.737-0.731,1.661-1.099,2.772-1.099c1.11,0,2.035,0.367,2.772,1.099c0.737,0.732,1.106,1.689,1.106,2.87
		s-0.385,2.137-1.155,2.87c-0.77,0.732-1.711,1.099-2.821,1.099C220.873,142.469,219.965,142.104,219.26,141.377 M221.984,141.419
		c0.719,0,1.342-0.259,1.869-0.777c0.527-0.518,0.791-1.234,0.791-2.148c0-0.915-0.252-1.629-0.756-2.143
		c-0.505-0.513-1.118-0.77-1.842-0.77c-0.722,0-1.327,0.257-1.812,0.77c-0.485,0.514-0.729,1.23-0.729,2.149
		s0.234,1.636,0.701,2.148C220.672,141.162,221.265,141.419,221.984,141.419"/>
	<path clip-path="url(#SVGID_113_)" fill="#808184" d="M230.542,134.657v1.035h-1.61v6.65h-1.287v-6.65h-0.995v-1.035h0.995v-0.645
		c0-0.84,0.223-1.451,0.671-1.834c0.448-0.383,1.153-0.574,2.114-0.574v1.036c-0.56,0-0.95,0.105-1.169,0.315
		c-0.219,0.21-0.329,0.563-0.329,1.057v0.645H230.542z"/>
	<path clip-path="url(#SVGID_113_)" fill="#808184" d="M236.743,141.342c-0.699-0.751-1.049-1.713-1.049-2.884
		c0-1.172,0.347-2.119,1.043-2.842c0.695-0.724,1.57-1.086,2.625-1.086c0.653,0,1.225,0.154,1.714,0.463
		c0.491,0.308,0.862,0.709,1.114,1.203v-1.539h1.288v7.686h-1.288v-1.568c-0.252,0.504-0.623,0.913-1.114,1.226
		c-0.489,0.313-1.061,0.469-1.714,0.469C238.317,142.469,237.444,142.093,236.743,141.342 M241.427,140.593
		c0.508-0.522,0.763-1.218,0.763-2.086s-0.255-1.563-0.763-2.086c-0.509-0.522-1.12-0.784-1.834-0.784
		c-0.714,0-1.326,0.252-1.834,0.756c-0.509,0.504-0.764,1.19-0.764,2.059c0,0.867,0.257,1.572,0.771,2.113
		c0.513,0.542,1.124,0.813,1.834,0.813C240.31,141.377,240.918,141.115,241.427,140.593"/>
	<rect x="245.494" y="131.982" clip-path="url(#SVGID_113_)" fill="#808184" width="1.274" height="10.36"/>
	<rect x="248.79" y="131.982" clip-path="url(#SVGID_113_)" fill="#808184" width="1.274" height="10.36"/>
	<path clip-path="url(#SVGID_113_)" fill="#808184" d="M258.884,141.307h1.05v1.036h-1.288c-1.335,0-2.002-0.658-2.002-1.973v-4.678
		h-0.994v-1.035h0.994v-1.904h1.288v1.904h1.988v1.035h-1.988v4.678c0,0.344,0.07,0.587,0.21,0.727
		C258.281,141.236,258.529,141.307,258.884,141.307"/>
	<path clip-path="url(#SVGID_113_)" fill="#808184" d="M262.437,131.982v3.92c0.522-0.914,1.357-1.371,2.506-1.371
		c0.848,0,1.558,0.282,2.128,0.848c0.569,0.563,0.853,1.369,0.853,2.414v4.55h-1.259v-4.339c0-0.775-0.187-1.363-0.56-1.765
		c-0.374-0.401-0.89-0.603-1.547-0.603c-0.658,0-1.177,0.201-1.555,0.603s-0.566,0.989-0.566,1.765v4.339h-1.274v-10.36H262.437z"/>
	<path clip-path="url(#SVGID_113_)" fill="#808184" d="M273.151,142.469c-1.1,0-1.997-0.364-2.687-1.092
		c-0.691-0.729-1.036-1.689-1.036-2.884c0-1.195,0.35-2.154,1.05-2.877c0.7-0.725,1.607-1.085,2.723-1.085
		c1.115,0,2.011,0.343,2.688,1.027c0.676,0.688,1.015,1.563,1.015,2.625c0,0.272-0.019,0.524-0.056,0.757h-6.119
		c0.038,0.766,0.279,1.369,0.722,1.813c0.443,0.443,1.01,0.665,1.7,0.665c0.524,0,0.964-0.117,1.324-0.351
		c0.359-0.232,0.623-0.541,0.791-0.924h1.372c-0.243,0.672-0.66,1.228-1.253,1.665C274.792,142.25,274.049,142.469,273.151,142.469
		 M274.875,136.246c-0.458-0.443-1.024-0.665-1.701-0.665c-0.677,0-1.239,0.217-1.688,0.65c-0.447,0.435-0.695,1.029-0.741,1.785
		h4.83C275.564,137.279,275.332,136.689,274.875,136.246"/>
	<path clip-path="url(#SVGID_113_)" fill="#808184" d="M176.42,158.142c-0.699-0.751-1.049-1.713-1.049-2.884
		c0-1.172,0.347-2.119,1.043-2.842c0.695-0.724,1.57-1.086,2.625-1.086c0.653,0,1.225,0.154,1.714,0.463
		c0.491,0.308,0.862,0.709,1.114,1.203v-1.539h1.288v7.882c0,1.055-0.341,1.915-1.023,2.583c-0.68,0.667-1.544,1.001-2.59,1.001
		c-1.044,0-1.911-0.243-2.596-0.729c-0.687-0.485-1.076-1.12-1.169-1.903h1.246c0.121,0.438,0.405,0.802,0.853,1.092
		c0.449,0.289,1.004,0.434,1.666,0.434c0.664,0,1.216-0.217,1.66-0.65c0.443-0.435,0.665-1.044,0.665-1.827v-1.765
		c-0.252,0.504-0.623,0.913-1.114,1.226c-0.489,0.313-1.061,0.469-1.714,0.469C177.994,159.269,177.121,158.893,176.42,158.142
		 M181.104,157.393c0.508-0.522,0.763-1.218,0.763-2.086s-0.255-1.563-0.763-2.086c-0.509-0.522-1.12-0.784-1.834-0.784
		s-1.326,0.252-1.834,0.756c-0.509,0.504-0.764,1.19-0.764,2.059c0,0.867,0.257,1.572,0.771,2.113
		c0.513,0.542,1.124,0.813,1.834,0.813C179.986,158.177,180.595,157.915,181.104,157.393"/>
	<path clip-path="url(#SVGID_113_)" fill="#808184" d="M185.774,158.177c-0.704-0.729-1.056-1.685-1.056-2.87
		s0.369-2.145,1.106-2.877c0.737-0.732,1.661-1.099,2.772-1.099c1.11,0,2.035,0.366,2.772,1.099s1.106,1.689,1.106,2.87
		s-0.385,2.137-1.155,2.87c-0.77,0.732-1.711,1.099-2.821,1.099C187.388,159.269,186.479,158.904,185.774,158.177 M188.499,158.219
		c0.719,0,1.342-0.259,1.869-0.777c0.527-0.518,0.791-1.234,0.791-2.148c0-0.915-0.252-1.629-0.756-2.143
		c-0.505-0.513-1.118-0.77-1.842-0.77c-0.722,0-1.327,0.257-1.812,0.77c-0.485,0.514-0.729,1.23-0.729,2.149
		s0.234,1.636,0.701,2.147C187.187,157.962,187.78,158.219,188.499,158.219"/>
	<rect x="194.038" y="148.782" clip-path="url(#SVGID_113_)" fill="#808184" width="1.274" height="10.359"/>
	<path clip-path="url(#SVGID_113_)" fill="#808184" d="M197.947,158.142c-0.699-0.751-1.049-1.713-1.049-2.884
		c0-1.172,0.347-2.119,1.043-2.842c0.695-0.724,1.57-1.086,2.625-1.086c0.653,0,1.225,0.154,1.714,0.463
		c0.491,0.308,0.862,0.709,1.114,1.203v-4.214h1.288v10.36h-1.288v-1.568c-0.252,0.504-0.623,0.913-1.114,1.226
		c-0.489,0.313-1.061,0.469-1.714,0.469C199.521,159.269,198.648,158.893,197.947,158.142 M202.631,157.393
		c0.508-0.522,0.763-1.218,0.763-2.086s-0.255-1.563-0.763-2.086c-0.509-0.522-1.12-0.784-1.834-0.784
		c-0.714,0-1.326,0.252-1.834,0.756c-0.509,0.504-0.764,1.19-0.764,2.059c0,0.867,0.257,1.572,0.771,2.113
		c0.513,0.542,1.124,0.813,1.834,0.813C201.514,158.177,202.123,157.915,202.631,157.393"/>
	<path clip-path="url(#SVGID_113_)" fill="#808184" d="M214.201,159.269c-1.1,0-1.997-0.364-2.687-1.092
		c-0.691-0.729-1.036-1.689-1.036-2.884c0-1.195,0.35-2.154,1.05-2.877c0.7-0.725,1.607-1.085,2.723-1.085
		c1.115,0,2.011,0.343,2.688,1.027c0.676,0.688,1.015,1.563,1.015,2.625c0,0.272-0.019,0.524-0.056,0.757h-6.119
		c0.038,0.766,0.279,1.369,0.722,1.813c0.443,0.443,1.01,0.665,1.7,0.665c0.524,0,0.964-0.117,1.324-0.351
		c0.359-0.232,0.623-0.541,0.791-0.924h1.372c-0.243,0.672-0.66,1.228-1.253,1.665C215.842,159.05,215.099,159.269,214.201,159.269
		 M215.924,153.046c-0.458-0.443-1.024-0.665-1.701-0.665c-0.677,0-1.239,0.217-1.688,0.65c-0.447,0.435-0.695,1.029-0.741,1.785
		h4.83C216.614,154.079,216.381,153.489,215.924,153.046"/>
	<polygon clip-path="url(#SVGID_113_)" fill="#808184" points="218.364,151.457 219.722,151.457 222.074,157.952 224.44,151.457 
		225.812,151.457 222.802,159.143 221.36,159.143 	"/>
	<path clip-path="url(#SVGID_113_)" fill="#808184" d="M229.918,159.269c-1.1,0-1.997-0.364-2.687-1.092
		c-0.691-0.729-1.036-1.689-1.036-2.884c0-1.195,0.35-2.154,1.05-2.877c0.7-0.725,1.607-1.085,2.723-1.085
		c1.115,0,2.011,0.343,2.688,1.027c0.676,0.688,1.015,1.563,1.015,2.625c0,0.272-0.019,0.524-0.056,0.757h-6.119
		c0.038,0.766,0.279,1.369,0.722,1.813c0.443,0.443,1.01,0.665,1.7,0.665c0.524,0,0.964-0.117,1.324-0.351
		c0.359-0.232,0.623-0.541,0.791-0.924h1.372c-0.243,0.672-0.66,1.228-1.253,1.665C231.559,159.05,230.815,159.269,229.918,159.269
		 M231.641,153.046c-0.458-0.443-1.024-0.665-1.701-0.665c-0.677,0-1.239,0.217-1.688,0.65c-0.447,0.435-0.695,1.029-0.741,1.785
		h4.83C232.331,154.079,232.098,153.489,231.641,153.046"/>
	<path clip-path="url(#SVGID_113_)" fill="#808184" d="M236.501,151.457v1.302c0.457-0.952,1.236-1.428,2.338-1.428v1.329h-0.336
		c-0.653,0-1.15,0.171-1.491,0.512c-0.341,0.341-0.511,0.932-0.511,1.771v4.2h-1.274v-7.686H236.501z"/>
	<path clip-path="url(#SVGID_113_)" fill="#808184" d="M245.854,151.457v1.245c0.522-0.914,1.357-1.371,2.506-1.371
		c0.588,0,1.12,0.142,1.596,0.427c0.476,0.284,0.835,0.697,1.078,1.238c0.28-0.522,0.66-0.931,1.14-1.225
		c0.482-0.293,1.03-0.44,1.646-0.44c0.868,0,1.587,0.282,2.156,0.847s0.854,1.37,0.854,2.415v4.55h-1.26v-4.34
		c0-0.774-0.19-1.362-0.568-1.764c-0.377-0.401-0.893-0.603-1.546-0.603c-0.654,0-1.169,0.201-1.547,0.603s-0.568,0.989-0.568,1.764
		v4.34h-1.259v-4.34c0-0.774-0.187-1.362-0.56-1.764c-0.374-0.401-0.89-0.603-1.547-0.603c-0.658,0-1.177,0.201-1.555,0.603
		s-0.566,0.989-0.566,1.764v4.34h-1.274v-7.686H245.854z"/>
	<path clip-path="url(#SVGID_113_)" fill="#808184" d="M260.026,149.973c-0.168,0.168-0.373,0.252-0.615,0.252
		c-0.243,0-0.447-0.084-0.61-0.252c-0.163-0.168-0.245-0.373-0.245-0.616c0-0.242,0.084-0.448,0.252-0.616s0.371-0.252,0.61-0.252
		c0.238,0,0.44,0.084,0.608,0.252s0.252,0.374,0.252,0.616C260.278,149.6,260.194,149.805,260.026,149.973 M258.766,151.457h1.274
		v7.686h-1.274V151.457z"/>
	<path clip-path="url(#SVGID_113_)" fill="#808184" d="M263.338,151.457v1.245c0.522-0.914,1.357-1.371,2.506-1.371
		c0.848,0,1.558,0.282,2.128,0.847c0.569,0.564,0.853,1.37,0.853,2.415v4.55h-1.259v-4.34c0-0.774-0.187-1.362-0.56-1.764
		c-0.374-0.401-0.89-0.603-1.547-0.603c-0.658,0-1.177,0.201-1.555,0.603s-0.566,0.989-0.566,1.764v4.34h-1.274v-7.686H263.338z"/>
	<path clip-path="url(#SVGID_113_)" fill="#808184" d="M274.053,159.269c-1.1,0-1.997-0.364-2.687-1.092
		c-0.691-0.729-1.036-1.689-1.036-2.884c0-1.195,0.35-2.154,1.05-2.877c0.7-0.725,1.607-1.085,2.723-1.085
		c1.115,0,2.011,0.343,2.688,1.027c0.676,0.688,1.015,1.563,1.015,2.625c0,0.272-0.019,0.524-0.056,0.757h-6.119
		c0.038,0.766,0.279,1.369,0.722,1.813c0.443,0.443,1.01,0.665,1.7,0.665c0.524,0,0.964-0.117,1.324-0.351
		c0.359-0.232,0.623-0.541,0.791-0.924h1.372c-0.243,0.672-0.66,1.228-1.253,1.665C275.694,159.05,274.95,159.269,274.053,159.269
		 M275.776,153.046c-0.458-0.443-1.024-0.665-1.701-0.665c-0.677,0-1.239,0.217-1.688,0.65c-0.447,0.435-0.695,1.029-0.741,1.785
		h4.83C276.466,154.079,276.233,153.489,275.776,153.046"/>
	<path clip-path="url(#SVGID_113_)" fill="#808184" d="M279.958,158.142c-0.699-0.751-1.049-1.713-1.049-2.884
		c0-1.172,0.347-2.119,1.043-2.842c0.695-0.724,1.57-1.086,2.625-1.086c0.653,0,1.225,0.154,1.714,0.463
		c0.491,0.308,0.862,0.709,1.114,1.203v-4.214h1.288v10.36h-1.288v-1.568c-0.252,0.504-0.623,0.913-1.114,1.226
		c-0.489,0.313-1.061,0.469-1.714,0.469C281.532,159.269,280.659,158.893,279.958,158.142 M284.642,157.393
		c0.508-0.522,0.763-1.218,0.763-2.086s-0.255-1.563-0.763-2.086c-0.509-0.522-1.12-0.784-1.834-0.784s-1.326,0.252-1.834,0.756
		c-0.509,0.504-0.764,1.19-0.764,2.059c0,0.867,0.257,1.572,0.771,2.113c0.513,0.542,1.124,0.813,1.834,0.813
		C283.524,158.177,284.133,157.915,284.642,157.393"/>
	<path clip-path="url(#SVGID_113_)" fill="#808184" d="M345.07,135.928c0,1.303-0.953,2.087-2.62,2.997
		c-0.49,0.267-1.036,0.561-1.652,0.868c-0.491,0.253-0.673,0.322-0.673,0.379c0,0.056,0.028,0.056,0.322,0.056h2.282
		c0.842,0,1.037-0.195,1.36-0.63c0.195-0.28,0.419-0.561,0.769-0.561c0.394,0,0.394,0.336,0.394,0.603
		c-0.029,0.756-0.071,1.513-0.098,2.311c-0.016,0.238-0.016,0.435-0.338,0.435c-0.35,0-0.685,0-1.035-0.014
		c-0.784-0.028-1.569-0.028-2.438-0.028c-0.742,0-1.358,0.014-1.89,0.014c-0.532,0.015-0.981,0.028-1.415,0.028
		c-0.268,0-0.616,0-0.616-0.393c0-0.364,0.448-0.644,0.7-0.854c0.715-0.588,1.399-1.218,2.017-1.919
		c0.756-0.854,1.485-1.862,1.485-3.054c0-0.63-0.352-1.639-1.457-1.639c-0.688,0-1.107,0.336-1.569,0.826
		c-0.224,0.238-0.279,0.28-0.463,0.28c-0.153,0-0.307-0.14-0.307-0.406c0-0.574,1.051-1.861,3.613-1.861
		c2.661,0,3.629,1.386,3.629,2.548V135.928z"/>
	<path clip-path="url(#SVGID_113_)" fill="#808184" d="M346.281,136.754c0-2.102,1.987-3.39,4.37-3.39
		c2.324,0,4.021,1.106,4.021,3.571c0,3.152-2.998,4.861-5.464,6.079c-0.658,0.322-1.849,0.854-2.255,0.854
		c-0.394,0-0.49-0.35-0.49-0.462c0-0.35,0.308-0.49,1.274-0.91c2.34-1.009,3.67-2.424,3.67-4.398c0-1.709-0.616-3.685-1.456-3.685
		c-0.463,0-0.616,0.505-0.616,1.065c0,0.658,0.252,2.213,1.036,2.563c0.139,0.057,0.265,0.112,0.322,0.238
		c0.014,0.057,0.027,0.112,0.027,0.183c0,0.448-0.743,0.938-1.736,0.938c-1.388,0-2.703-0.953-2.703-2.634V136.754z"/>
	<polygon clip-path="url(#SVGID_113_)" fill="#808184" points="362.409,142.217 359.371,134.657 360.771,134.657 363.123,140.873 
		365.517,134.657 366.833,134.657 362.199,145.94 360.883,145.94 	"/>
	<path clip-path="url(#SVGID_113_)" fill="#808184" d="M370.924,142.469c-1.1,0-1.997-0.364-2.687-1.092
		c-0.691-0.729-1.036-1.689-1.036-2.884c0-1.195,0.35-2.154,1.05-2.877c0.7-0.725,1.607-1.085,2.723-1.085s2.012,0.343,2.688,1.027
		c0.676,0.688,1.015,1.563,1.015,2.625c0,0.272-0.019,0.524-0.056,0.757h-6.119c0.038,0.766,0.279,1.369,0.722,1.813
		c0.443,0.443,1.011,0.665,1.7,0.665c0.524,0,0.964-0.117,1.324-0.351c0.359-0.232,0.623-0.541,0.791-0.924h1.372
		c-0.243,0.672-0.66,1.228-1.253,1.665C372.565,142.25,371.821,142.469,370.924,142.469 M372.647,136.246
		c-0.458-0.443-1.024-0.665-1.701-0.665s-1.239,0.217-1.688,0.65c-0.446,0.435-0.694,1.029-0.74,1.785h4.829
		C373.337,137.279,373.104,136.689,372.647,136.246"/>
	<path clip-path="url(#SVGID_113_)" fill="#808184" d="M376.829,141.342c-0.699-0.751-1.049-1.713-1.049-2.884
		c0-1.172,0.347-2.119,1.043-2.842c0.695-0.724,1.57-1.086,2.625-1.086c0.653,0,1.225,0.154,1.714,0.463
		c0.491,0.308,0.862,0.709,1.114,1.203v-1.539h1.288v7.686h-1.288v-1.568c-0.252,0.504-0.623,0.913-1.114,1.226
		c-0.489,0.313-1.061,0.469-1.714,0.469C378.403,142.469,377.53,142.093,376.829,141.342 M381.514,140.593
		c0.508-0.522,0.763-1.218,0.763-2.086s-0.255-1.563-0.763-2.086c-0.51-0.522-1.12-0.784-1.834-0.784
		c-0.715,0-1.326,0.252-1.834,0.756c-0.51,0.504-0.765,1.19-0.765,2.059c0,0.867,0.257,1.572,0.771,2.113
		c0.513,0.542,1.124,0.813,1.834,0.813C380.396,141.377,381.004,141.115,381.514,140.593"/>
	<path clip-path="url(#SVGID_113_)" fill="#808184" d="M386.855,134.657v1.302c0.457-0.952,1.235-1.428,2.338-1.428v1.329h-0.336
		c-0.653,0-1.15,0.171-1.491,0.512s-0.511,0.932-0.511,1.771v4.2h-1.274v-7.686H386.855z"/>
	<path clip-path="url(#SVGID_113_)" fill="#808184" d="M390.282,136.827c0-0.645,0.269-1.187,0.806-1.632
		c0.536-0.442,1.231-0.664,2.086-0.664c0.854,0,1.523,0.217,2.008,0.649c0.486,0.436,0.751,1.03,0.798,1.786h-1.314
		c-0.021-0.43-0.164-0.774-0.436-1.036c-0.27-0.261-0.646-0.392-1.127-0.392c-0.479,0-0.857,0.114-1.134,0.343
		c-0.274,0.229-0.413,0.522-0.413,0.882s0.157,0.637,0.469,0.833c0.313,0.196,0.691,0.339,1.136,0.427
		c0.441,0.089,0.886,0.191,1.329,0.309c0.442,0.116,0.82,0.336,1.135,0.658c0.312,0.321,0.469,0.779,0.469,1.371
		c0,0.593-0.269,1.093-0.805,1.498c-0.537,0.406-1.235,0.609-2.094,0.609s-1.548-0.215-2.064-0.644
		c-0.519-0.43-0.801-1.022-0.848-1.778h1.315c0.02,0.43,0.17,0.772,0.455,1.029s0.677,0.385,1.176,0.385s0.893-0.107,1.177-0.322
		s0.428-0.487,0.428-0.819c0-0.331-0.113-0.595-0.336-0.791c-0.226-0.195-0.504-0.331-0.841-0.405
		c-0.336-0.075-0.702-0.163-1.1-0.267c-0.396-0.103-0.762-0.212-1.098-0.329c-0.336-0.116-0.616-0.319-0.84-0.608
		C390.394,137.63,390.282,137.266,390.282,136.827"/>
	<path clip-path="url(#SVGID_113_)" fill="#808184" d="M402.679,141.377c-0.704-0.729-1.056-1.685-1.056-2.87
		s0.369-2.145,1.105-2.877c0.737-0.731,1.661-1.099,2.772-1.099c1.11,0,2.035,0.367,2.772,1.099c0.736,0.732,1.105,1.689,1.105,2.87
		s-0.385,2.137-1.155,2.87c-0.77,0.732-1.711,1.099-2.82,1.099C404.292,142.469,403.384,142.104,402.679,141.377 M405.403,141.419
		c0.719,0,1.342-0.259,1.869-0.777c0.526-0.518,0.79-1.234,0.79-2.148c0-0.915-0.252-1.629-0.756-2.143
		c-0.505-0.513-1.117-0.77-1.842-0.77c-0.722,0-1.327,0.257-1.812,0.77c-0.485,0.514-0.729,1.23-0.729,2.149
		s0.234,1.636,0.701,2.148C404.091,141.162,404.684,141.419,405.403,141.419"/>
	<path clip-path="url(#SVGID_113_)" fill="#808184" d="M413.961,134.657v1.035h-1.61v6.65h-1.287v-6.65h-0.995v-1.035h0.995v-0.645
		c0-0.84,0.223-1.451,0.671-1.834s1.153-0.574,2.114-0.574v1.036c-0.56,0-0.95,0.105-1.169,0.315s-0.329,0.563-0.329,1.057v0.645
		H413.961z"/>
	<path clip-path="url(#SVGID_113_)" fill="#808184" d="M420.149,141.377c-0.69-0.729-1.036-1.687-1.036-2.877
		s0.346-2.149,1.036-2.877c0.689-0.729,1.587-1.092,2.688-1.092c0.924,0,1.677,0.214,2.261,0.644
		c0.583,0.43,0.991,1.041,1.226,1.834h-1.372c-0.15-0.448-0.406-0.798-0.771-1.05c-0.363-0.252-0.812-0.378-1.344-0.378
		c-0.728,0-1.313,0.254-1.757,0.763c-0.444,0.509-0.665,1.228-0.665,2.156s0.221,1.648,0.665,2.156
		c0.443,0.509,1.029,0.763,1.757,0.763c1.092,0,1.796-0.477,2.114-1.428h1.372c-0.234,0.756-0.647,1.357-1.239,1.806
		c-0.593,0.448-1.342,0.672-2.247,0.672C421.736,142.469,420.839,142.104,420.149,141.377"/>
	<rect x="427.875" y="131.982" clip-path="url(#SVGID_113_)" fill="#808184" width="1.274" height="10.36"/>
	<path clip-path="url(#SVGID_113_)" fill="#808184" d="M434.458,142.469c-1.1,0-1.997-0.364-2.687-1.092
		c-0.691-0.729-1.036-1.689-1.036-2.884c0-1.195,0.35-2.154,1.05-2.877c0.7-0.725,1.607-1.085,2.723-1.085s2.012,0.343,2.688,1.027
		c0.676,0.688,1.015,1.563,1.015,2.625c0,0.272-0.019,0.524-0.056,0.757h-6.119c0.038,0.766,0.279,1.369,0.722,1.813
		c0.443,0.443,1.011,0.665,1.7,0.665c0.524,0,0.964-0.117,1.324-0.351c0.359-0.232,0.623-0.541,0.791-0.924h1.372
		c-0.243,0.672-0.66,1.228-1.253,1.665C436.1,142.25,435.355,142.469,434.458,142.469 M436.182,136.246
		c-0.458-0.443-1.024-0.665-1.701-0.665s-1.239,0.217-1.688,0.65c-0.446,0.435-0.694,1.029-0.74,1.785h4.829
		C436.871,137.279,436.639,136.689,436.182,136.246"/>
	<path clip-path="url(#SVGID_113_)" fill="#808184" d="M440.363,141.342c-0.699-0.751-1.049-1.713-1.049-2.884
		c0-1.172,0.347-2.119,1.043-2.842c0.695-0.724,1.57-1.086,2.625-1.086c0.653,0,1.225,0.154,1.714,0.463
		c0.491,0.308,0.862,0.709,1.114,1.203v-1.539h1.288v7.686h-1.288v-1.568c-0.252,0.504-0.623,0.913-1.114,1.226
		c-0.489,0.313-1.061,0.469-1.714,0.469C441.938,142.469,441.064,142.093,440.363,141.342 M445.048,140.593
		c0.508-0.522,0.763-1.218,0.763-2.086s-0.255-1.563-0.763-2.086c-0.51-0.522-1.12-0.784-1.834-0.784
		c-0.715,0-1.326,0.252-1.834,0.756c-0.51,0.504-0.765,1.19-0.765,2.059c0,0.867,0.257,1.572,0.771,2.113
		c0.513,0.542,1.124,0.813,1.834,0.813C443.93,141.377,444.538,141.115,445.048,140.593"/>
	<path clip-path="url(#SVGID_113_)" fill="#808184" d="M450.391,134.657v1.245c0.521-0.914,1.356-1.371,2.506-1.371
		c0.848,0,1.558,0.282,2.128,0.847c0.569,0.564,0.853,1.37,0.853,2.415v4.55h-1.259v-4.34c0-0.774-0.187-1.362-0.56-1.764
		c-0.374-0.401-0.891-0.603-1.547-0.603c-0.658,0-1.178,0.201-1.556,0.603s-0.565,0.989-0.565,1.764v4.34h-1.274v-7.686H450.391z"/>
	<path clip-path="url(#SVGID_113_)" fill="#808184" d="M320.345,158.142c-0.699-0.751-1.049-1.713-1.049-2.884
		c0-1.172,0.347-2.119,1.043-2.842c0.695-0.724,1.57-1.086,2.625-1.086c0.653,0,1.225,0.154,1.714,0.463
		c0.491,0.308,0.862,0.709,1.114,1.203v-4.214h1.288v10.36h-1.288v-1.568c-0.252,0.504-0.623,0.913-1.114,1.226
		c-0.489,0.313-1.061,0.469-1.714,0.469C321.919,159.269,321.046,158.893,320.345,158.142 M325.029,157.393
		c0.508-0.522,0.763-1.218,0.763-2.086s-0.255-1.563-0.763-2.086c-0.51-0.522-1.12-0.784-1.834-0.784
		c-0.715,0-1.326,0.252-1.834,0.756c-0.51,0.504-0.765,1.19-0.765,2.059c0,0.867,0.257,1.572,0.771,2.113
		c0.513,0.542,1.124,0.813,1.834,0.813C323.911,158.177,324.52,157.915,325.029,157.393"/>
	<path clip-path="url(#SVGID_113_)" fill="#808184" d="M330.371,151.457v1.302c0.457-0.952,1.235-1.428,2.338-1.428v1.329h-0.336
		c-0.653,0-1.15,0.171-1.491,0.512s-0.511,0.932-0.511,1.771v4.2h-1.274v-7.686H330.371z"/>
	<path clip-path="url(#SVGID_113_)" fill="#808184" d="M335.268,149.973c-0.168,0.168-0.373,0.252-0.614,0.252
		c-0.243,0-0.446-0.084-0.609-0.252c-0.164-0.168-0.246-0.373-0.246-0.616c0-0.242,0.084-0.448,0.252-0.616s0.372-0.252,0.61-0.252
		s0.439,0.084,0.607,0.252s0.252,0.374,0.252,0.616C335.52,149.6,335.436,149.805,335.268,149.973 M334.008,151.457h1.274v7.686
		h-1.274V151.457z"/>
	<path clip-path="url(#SVGID_113_)" fill="#808184" d="M338.581,151.457v1.245c0.521-0.914,1.356-1.371,2.506-1.371
		c0.848,0,1.558,0.282,2.128,0.847c0.568,0.564,0.853,1.37,0.853,2.415v4.55h-1.259v-4.34c0-0.774-0.187-1.362-0.56-1.764
		c-0.374-0.401-0.891-0.603-1.548-0.603s-1.177,0.201-1.555,0.603s-0.565,0.989-0.565,1.764v4.34h-1.274v-7.686H338.581z"/>
	<polygon clip-path="url(#SVGID_113_)" fill="#808184" points="347.308,159.143 346.033,159.143 346.033,148.782 347.308,148.782 
		347.308,154.858 350.246,151.457 352.038,151.457 348.412,155.278 352.038,159.143 350.317,159.143 347.308,155.769 	"/>
	<path clip-path="url(#SVGID_113_)" fill="#808184" d="M354.416,149.973c-0.168,0.168-0.373,0.252-0.616,0.252
		s-0.446-0.084-0.608-0.252c-0.163-0.168-0.245-0.373-0.245-0.616c0-0.242,0.084-0.448,0.252-0.616s0.371-0.252,0.608-0.252
		c0.239,0,0.441,0.084,0.609,0.252s0.252,0.374,0.252,0.616C354.668,149.6,354.584,149.805,354.416,149.973 M353.156,151.457h1.273
		v7.686h-1.273V151.457z"/>
	<path clip-path="url(#SVGID_113_)" fill="#808184" d="M357.729,151.457v1.245c0.521-0.914,1.356-1.371,2.506-1.371
		c0.848,0,1.558,0.282,2.128,0.847c0.568,0.564,0.853,1.37,0.853,2.415v4.55h-1.259v-4.34c0-0.774-0.187-1.362-0.56-1.764
		c-0.374-0.401-0.891-0.603-1.548-0.603s-1.177,0.201-1.555,0.603s-0.565,0.989-0.565,1.764v4.34h-1.274v-7.686H357.729z"/>
	<path clip-path="url(#SVGID_113_)" fill="#808184" d="M365.769,158.142c-0.699-0.751-1.049-1.713-1.049-2.884
		c0-1.172,0.347-2.119,1.043-2.842c0.695-0.724,1.57-1.086,2.625-1.086c0.653,0,1.225,0.154,1.714,0.463
		c0.491,0.308,0.862,0.709,1.114,1.203v-1.539h1.288v7.882c0,1.055-0.341,1.915-1.023,2.583c-0.68,0.667-1.544,1.001-2.59,1.001
		c-1.044,0-1.911-0.243-2.596-0.729c-0.688-0.485-1.076-1.12-1.169-1.903h1.246c0.121,0.438,0.404,0.802,0.853,1.092
		c0.449,0.289,1.004,0.434,1.666,0.434c0.664,0,1.216-0.217,1.66-0.65c0.443-0.435,0.665-1.044,0.665-1.827v-1.765
		c-0.252,0.504-0.623,0.913-1.114,1.226c-0.489,0.313-1.061,0.469-1.714,0.469C367.343,159.269,366.47,158.893,365.769,158.142
		 M370.453,157.393c0.508-0.522,0.763-1.218,0.763-2.086s-0.255-1.563-0.763-2.086c-0.51-0.522-1.12-0.784-1.834-0.784
		c-0.715,0-1.326,0.252-1.834,0.756c-0.51,0.504-0.765,1.19-0.765,2.059c0,0.867,0.257,1.572,0.771,2.113
		c0.513,0.542,1.124,0.813,1.834,0.813C369.335,158.177,369.943,157.915,370.453,157.393"/>
	<polygon clip-path="url(#SVGID_113_)" fill="#808184" points="387.61,151.457 388.896,151.457 386.475,159.143 385.16,159.143 
		383.423,153.039 381.687,159.143 380.357,159.143 377.922,151.457 379.238,151.457 381.015,157.868 382.822,151.457 
		384.137,151.457 385.845,157.883 	"/>
	<path clip-path="url(#SVGID_113_)" fill="#808184" d="M390.468,158.142c-0.699-0.751-1.049-1.713-1.049-2.884
		c0-1.172,0.347-2.119,1.043-2.842c0.695-0.724,1.57-1.086,2.625-1.086c0.653,0,1.225,0.154,1.714,0.463
		c0.491,0.308,0.862,0.709,1.114,1.203v-1.539h1.288v7.686h-1.288v-1.568c-0.252,0.504-0.623,0.913-1.114,1.226
		c-0.489,0.313-1.061,0.469-1.714,0.469C392.042,159.269,391.169,158.893,390.468,158.142 M395.152,157.393
		c0.508-0.522,0.763-1.218,0.763-2.086s-0.255-1.563-0.763-2.086c-0.51-0.522-1.12-0.784-1.834-0.784
		c-0.715,0-1.326,0.252-1.834,0.756c-0.51,0.504-0.765,1.19-0.765,2.059c0,0.867,0.257,1.572,0.771,2.113
		c0.513,0.542,1.124,0.813,1.834,0.813C394.034,158.177,394.643,157.915,395.152,157.393"/>
	<path clip-path="url(#SVGID_113_)" fill="#808184" d="M401.727,158.106h1.05v1.036h-1.288c-1.335,0-2.002-0.658-2.002-1.973v-4.678
		h-0.994v-1.035h0.994v-1.904h1.288v1.904h1.987v1.035h-1.987v4.678c0,0.344,0.069,0.587,0.21,0.727
		C401.123,158.036,401.371,158.106,401.727,158.106"/>
	<path clip-path="url(#SVGID_113_)" fill="#808184" d="M407.082,159.269c-1.1,0-1.997-0.364-2.687-1.092
		c-0.691-0.729-1.036-1.689-1.036-2.884c0-1.195,0.35-2.154,1.05-2.877c0.7-0.725,1.607-1.085,2.723-1.085s2.012,0.343,2.688,1.027
		c0.676,0.688,1.015,1.563,1.015,2.625c0,0.272-0.019,0.524-0.056,0.757h-6.119c0.038,0.766,0.279,1.369,0.722,1.813
		c0.443,0.443,1.011,0.665,1.7,0.665c0.524,0,0.964-0.117,1.324-0.351c0.359-0.232,0.623-0.541,0.791-0.924h1.372
		c-0.243,0.672-0.66,1.228-1.253,1.665C408.724,159.05,407.979,159.269,407.082,159.269 M408.806,153.046
		c-0.458-0.443-1.024-0.665-1.701-0.665s-1.239,0.217-1.688,0.65c-0.446,0.435-0.694,1.029-0.74,1.785h4.829
		C409.495,154.079,409.263,153.489,408.806,153.046"/>
	<path clip-path="url(#SVGID_113_)" fill="#808184" d="M413.666,151.457v1.302c0.457-0.952,1.235-1.428,2.338-1.428v1.329h-0.336
		c-0.653,0-1.15,0.171-1.491,0.512s-0.511,0.932-0.511,1.771v4.2h-1.274v-7.686H413.666z"/>
	<path clip-path="url(#SVGID_113_)" fill="#808184" d="M422.289,158.142c-0.699-0.751-1.049-1.713-1.049-2.884
		c0-1.172,0.347-2.119,1.043-2.842c0.695-0.724,1.57-1.086,2.625-1.086c0.653,0,1.225,0.154,1.714,0.463
		c0.491,0.308,0.862,0.709,1.114,1.203v-1.539h1.288v7.882c0,1.055-0.341,1.915-1.023,2.583c-0.68,0.667-1.544,1.001-2.59,1.001
		c-1.044,0-1.911-0.243-2.596-0.729c-0.688-0.485-1.076-1.12-1.169-1.903h1.246c0.121,0.438,0.404,0.802,0.853,1.092
		c0.449,0.289,1.004,0.434,1.666,0.434c0.664,0,1.216-0.217,1.66-0.65c0.443-0.435,0.665-1.044,0.665-1.827v-1.765
		c-0.252,0.504-0.623,0.913-1.114,1.226c-0.489,0.313-1.061,0.469-1.714,0.469C423.863,159.269,422.99,158.893,422.289,158.142
		 M426.974,157.393c0.508-0.522,0.763-1.218,0.763-2.086s-0.255-1.563-0.763-2.086c-0.51-0.522-1.12-0.784-1.834-0.784
		s-1.326,0.252-1.834,0.756c-0.51,0.504-0.765,1.19-0.765,2.059c0,0.867,0.257,1.572,0.771,2.113
		c0.513,0.542,1.124,0.813,1.834,0.813C425.855,158.177,426.464,157.915,426.974,157.393"/>
	<rect x="431.04" y="148.782" clip-path="url(#SVGID_113_)" fill="#808184" width="1.274" height="10.359"/>
	<path clip-path="url(#SVGID_113_)" fill="#808184" d="M434.956,158.177c-0.704-0.729-1.056-1.685-1.056-2.87
		s0.369-2.145,1.105-2.877c0.737-0.732,1.661-1.099,2.772-1.099c1.11,0,2.035,0.366,2.772,1.099c0.736,0.732,1.105,1.689,1.105,2.87
		s-0.385,2.137-1.155,2.87c-0.77,0.732-1.711,1.099-2.82,1.099C436.569,159.269,435.661,158.904,434.956,158.177 M437.681,158.219
		c0.719,0,1.342-0.259,1.868-0.777c0.527-0.518,0.791-1.234,0.791-2.148c0-0.915-0.252-1.629-0.756-2.143
		c-0.505-0.513-1.118-0.77-1.842-0.77c-0.722,0-1.327,0.257-1.812,0.77c-0.485,0.514-0.729,1.23-0.729,2.149
		s0.234,1.636,0.701,2.147C436.368,157.962,436.961,158.219,437.681,158.219"/>
	<path clip-path="url(#SVGID_113_)" fill="#808184" d="M447.318,151.331c1.055,0,1.93,0.361,2.625,1.085
		c0.694,0.723,1.043,1.67,1.043,2.842c0,1.171-0.351,2.133-1.051,2.884c-0.699,0.751-1.572,1.127-2.617,1.127
		c-0.653,0-1.225-0.156-1.716-0.469c-0.489-0.313-0.865-0.722-1.127-1.226v1.568h-1.273v-10.36h1.273v4.214
		c0.262-0.494,0.638-0.896,1.127-1.203C446.094,151.484,446.665,151.331,447.318,151.331 M447.073,158.177
		c0.714,0,1.324-0.269,1.834-0.806c0.509-0.536,0.763-1.24,0.763-2.113s-0.254-1.562-0.763-2.065
		c-0.51-0.504-1.12-0.756-1.834-0.756s-1.325,0.261-1.834,0.784c-0.51,0.522-0.764,1.216-0.764,2.079s0.254,1.559,0.764,2.086
		C445.748,157.913,446.359,158.177,447.073,158.177"/>
	<path clip-path="url(#SVGID_113_)" fill="#808184" d="M453.151,158.142c-0.699-0.751-1.049-1.713-1.049-2.884
		c0-1.172,0.347-2.119,1.043-2.842c0.695-0.724,1.57-1.086,2.625-1.086c0.653,0,1.225,0.154,1.714,0.463
		c0.491,0.308,0.862,0.709,1.114,1.203v-1.539h1.288v7.686h-1.288v-1.568c-0.252,0.504-0.623,0.913-1.114,1.226
		c-0.489,0.313-1.061,0.469-1.714,0.469C454.726,159.269,453.853,158.893,453.151,158.142 M457.836,157.393
		c0.508-0.522,0.763-1.218,0.763-2.086s-0.255-1.563-0.763-2.086c-0.51-0.522-1.12-0.784-1.834-0.784
		c-0.715,0-1.326,0.252-1.834,0.756c-0.51,0.504-0.765,1.19-0.765,2.059c0,0.867,0.257,1.572,0.771,2.113
		c0.513,0.542,1.124,0.813,1.834,0.813C456.718,158.177,457.326,157.915,457.836,157.393"/>
	<rect x="461.902" y="148.782" clip-path="url(#SVGID_113_)" fill="#808184" width="1.273" height="10.359"/>
	<rect x="465.198" y="148.782" clip-path="url(#SVGID_113_)" fill="#808184" width="1.273" height="10.359"/>
	<polygon clip-path="url(#SVGID_113_)" fill="#808184" points="470.656,159.017 467.618,151.457 469.018,151.457 471.37,157.673 
		473.764,151.457 475.08,151.457 470.446,162.74 469.13,162.74 	"/>
	<path clip-path="url(#SVGID_113_)" fill="#808184" d="M518.538,135.928c0,1.303-0.953,2.087-2.62,2.997
		c-0.49,0.267-1.036,0.561-1.652,0.868c-0.491,0.253-0.673,0.322-0.673,0.379c0,0.056,0.028,0.056,0.322,0.056h2.282
		c0.842,0,1.037-0.195,1.359-0.63c0.196-0.28,0.42-0.561,0.77-0.561c0.394,0,0.394,0.336,0.394,0.603
		c-0.029,0.756-0.071,1.513-0.098,2.311c-0.016,0.238-0.016,0.435-0.337,0.435c-0.351,0-0.686,0-1.036-0.014
		c-0.784-0.028-1.569-0.028-2.438-0.028c-0.742,0-1.357,0.014-1.89,0.014c-0.532,0.015-0.981,0.028-1.415,0.028
		c-0.268,0-0.616,0-0.616-0.393c0-0.364,0.448-0.644,0.7-0.854c0.715-0.588,1.399-1.218,2.017-1.919
		c0.756-0.854,1.485-1.862,1.485-3.054c0-0.63-0.352-1.639-1.457-1.639c-0.688,0-1.107,0.336-1.569,0.826
		c-0.224,0.238-0.279,0.28-0.463,0.28c-0.153,0-0.307-0.14-0.307-0.406c0-0.574,1.051-1.861,3.614-1.861
		c2.66,0,3.628,1.386,3.628,2.548V135.928z"/>
	<path clip-path="url(#SVGID_113_)" fill="#808184" d="M521.899,138.015c-1.415,0-2.227-1.093-2.227-2.312
		c0-1.303,0.925-2.312,2.241-2.312c1.303,0,2.24,0.953,2.24,2.312c0,1.232-0.826,2.312-2.24,2.312H521.899z M521.186,142.497
		c0-0.07,0.112-0.225,0.182-0.336l5.448-8.629c0.071-0.099,0.169-0.141,0.352-0.141h0.657c0.126,0,0.197,0,0.197,0.07
		c0,0.084-0.113,0.238-0.182,0.351l-5.449,8.628c-0.071,0.1-0.168,0.142-0.352,0.142h-0.657c-0.126,0-0.196,0-0.196-0.071V142.497z
		 M521.955,137.454c0.406,0,0.406-0.994,0.406-1.751s0-1.751-0.447-1.751c-0.448,0-0.448,0.994-0.448,1.751s0,1.751,0.476,1.751
		H521.955z M527.278,142.582c-1.415,0-2.227-1.094-2.227-2.313c0-1.303,0.925-2.311,2.241-2.311c1.303,0,2.24,0.952,2.24,2.311
		c0,1.232-0.825,2.313-2.24,2.313H527.278z M527.335,142.021c0.405,0,0.405-0.994,0.405-1.751c0-0.756,0-1.751-0.447-1.751
		c-0.448,0-0.448,0.995-0.448,1.751c0,0.757,0,1.751,0.476,1.751H527.335z"/>
	<path clip-path="url(#SVGID_113_)" fill="#808184" d="M535.541,141.377c-0.704-0.729-1.056-1.685-1.056-2.87
		s0.369-2.145,1.106-2.877c0.736-0.731,1.66-1.099,2.771-1.099c1.11,0,2.035,0.367,2.772,1.099c0.736,0.732,1.105,1.689,1.105,2.87
		s-0.385,2.137-1.155,2.87c-0.77,0.732-1.711,1.099-2.82,1.099C537.154,142.469,536.246,142.104,535.541,141.377 M538.266,141.419
		c0.719,0,1.342-0.259,1.869-0.777c0.526-0.518,0.791-1.234,0.791-2.148c0-0.915-0.253-1.629-0.757-2.143
		c-0.505-0.513-1.118-0.77-1.842-0.77c-0.722,0-1.327,0.257-1.812,0.77c-0.485,0.514-0.729,1.23-0.729,2.149
		s0.234,1.636,0.701,2.148C536.953,141.162,537.546,141.419,538.266,141.419"/>
	<path clip-path="url(#SVGID_113_)" fill="#808184" d="M546.823,134.657v1.035h-1.61v6.65h-1.287v-6.65h-0.995v-1.035h0.995v-0.645
		c0-0.84,0.223-1.451,0.671-1.834s1.153-0.574,2.114-0.574v1.036c-0.561,0-0.95,0.105-1.169,0.315s-0.329,0.563-0.329,1.057v0.645
		H546.823z"/>
	<path clip-path="url(#SVGID_113_)" fill="#808184" d="M555,141.307h1.05v1.036h-1.288c-1.335,0-2.002-0.658-2.002-1.973v-4.678
		h-0.994v-1.035h0.994v-1.904h1.288v1.904h1.987v1.035h-1.987v4.678c0,0.344,0.069,0.587,0.21,0.727
		C554.396,141.236,554.645,141.307,555,141.307"/>
	<path clip-path="url(#SVGID_113_)" fill="#808184" d="M557.682,141.377c-0.704-0.729-1.056-1.685-1.056-2.87
		s0.369-2.145,1.105-2.877c0.737-0.731,1.661-1.099,2.772-1.099c1.11,0,2.035,0.367,2.771,1.099c0.737,0.732,1.106,1.689,1.106,2.87
		s-0.385,2.137-1.155,2.87c-0.77,0.732-1.711,1.099-2.82,1.099C559.295,142.469,558.387,142.104,557.682,141.377 M560.406,141.419
		c0.719,0,1.342-0.259,1.868-0.777c0.527-0.518,0.791-1.234,0.791-2.148c0-0.915-0.252-1.629-0.756-2.143
		c-0.505-0.513-1.118-0.77-1.842-0.77c-0.722,0-1.327,0.257-1.812,0.77c-0.485,0.514-0.729,1.23-0.729,2.149
		s0.234,1.636,0.701,2.148C559.094,141.162,559.687,141.419,560.406,141.419"/>
	<path clip-path="url(#SVGID_113_)" fill="#808184" d="M568.312,141.307h1.05v1.036h-1.288c-1.335,0-2.002-0.658-2.002-1.973v-4.678
		h-0.994v-1.035h0.994v-1.904h1.288v1.904h1.988v1.035h-1.988v4.678c0,0.344,0.07,0.587,0.21,0.727
		C567.708,141.236,567.956,141.307,568.312,141.307"/>
	<path clip-path="url(#SVGID_113_)" fill="#808184" d="M570.994,141.342c-0.699-0.751-1.049-1.713-1.049-2.884
		c0-1.172,0.347-2.119,1.043-2.842c0.695-0.724,1.57-1.086,2.625-1.086c0.653,0,1.225,0.154,1.714,0.463
		c0.491,0.308,0.862,0.709,1.114,1.203v-1.539h1.288v7.686h-1.288v-1.568c-0.252,0.504-0.623,0.913-1.114,1.226
		c-0.489,0.313-1.061,0.469-1.714,0.469C572.568,142.469,571.695,142.093,570.994,141.342 M575.679,140.593
		c0.508-0.522,0.763-1.218,0.763-2.086s-0.255-1.563-0.763-2.086c-0.51-0.522-1.12-0.784-1.835-0.784
		c-0.714,0-1.325,0.252-1.834,0.756s-0.764,1.19-0.764,2.059c0,0.867,0.257,1.572,0.771,2.113c0.513,0.542,1.124,0.813,1.834,0.813
		C574.561,141.377,575.169,141.115,575.679,140.593"/>
	<rect x="579.745" y="131.982" clip-path="url(#SVGID_113_)" fill="#808184" width="1.273" height="10.36"/>
	<path clip-path="url(#SVGID_113_)" fill="#808184" d="M501.136,158.142c-0.699-0.751-1.049-1.713-1.049-2.884
		c0-1.172,0.347-2.119,1.043-2.842c0.695-0.724,1.57-1.086,2.625-1.086c0.653,0,1.225,0.154,1.714,0.463
		c0.491,0.308,0.862,0.709,1.114,1.203v-1.539h1.288v7.882c0,1.055-0.341,1.915-1.023,2.583c-0.68,0.667-1.544,1.001-2.59,1.001
		c-1.044,0-1.911-0.243-2.596-0.729c-0.688-0.485-1.076-1.12-1.169-1.903h1.246c0.12,0.438,0.404,0.802,0.853,1.092
		c0.449,0.289,1.004,0.434,1.666,0.434c0.664,0,1.216-0.217,1.66-0.65c0.443-0.435,0.665-1.044,0.665-1.827v-1.765
		c-0.252,0.504-0.623,0.913-1.114,1.226c-0.489,0.313-1.061,0.469-1.714,0.469C502.71,159.269,501.837,158.893,501.136,158.142
		 M505.82,157.393c0.508-0.522,0.763-1.218,0.763-2.086s-0.255-1.563-0.763-2.086c-0.51-0.522-1.12-0.784-1.834-0.784
		c-0.715,0-1.326,0.252-1.834,0.756c-0.51,0.504-0.765,1.19-0.765,2.059c0,0.867,0.257,1.572,0.771,2.113
		c0.513,0.542,1.124,0.813,1.834,0.813C504.702,158.177,505.311,157.915,505.82,157.393"/>
	<rect x="509.886" y="148.782" clip-path="url(#SVGID_113_)" fill="#808184" width="1.274" height="10.359"/>
	<path clip-path="url(#SVGID_113_)" fill="#808184" d="M513.803,158.177c-0.704-0.729-1.056-1.685-1.056-2.87
		s0.369-2.145,1.105-2.877c0.737-0.732,1.661-1.099,2.772-1.099c1.11,0,2.035,0.366,2.771,1.099c0.737,0.732,1.106,1.689,1.106,2.87
		s-0.385,2.137-1.155,2.87c-0.77,0.732-1.711,1.099-2.82,1.099C515.416,159.269,514.508,158.904,513.803,158.177 M516.527,158.219
		c0.719,0,1.342-0.259,1.868-0.777c0.527-0.518,0.791-1.234,0.791-2.148c0-0.915-0.252-1.629-0.756-2.143
		c-0.505-0.513-1.118-0.77-1.842-0.77c-0.722,0-1.327,0.257-1.812,0.77c-0.485,0.514-0.729,1.23-0.729,2.149
		s0.234,1.636,0.701,2.147C515.215,157.962,515.808,158.219,516.527,158.219"/>
	<path clip-path="url(#SVGID_113_)" fill="#808184" d="M526.164,151.331c1.055,0,1.93,0.361,2.625,1.085
		c0.694,0.723,1.043,1.67,1.043,2.842c0,1.171-0.351,2.133-1.051,2.884c-0.699,0.751-1.572,1.127-2.617,1.127
		c-0.653,0-1.225-0.156-1.716-0.469c-0.489-0.313-0.866-0.722-1.127-1.226v1.568h-1.273v-10.36h1.273v4.214
		c0.261-0.494,0.638-0.896,1.127-1.203C524.939,151.484,525.511,151.331,526.164,151.331 M525.919,158.177
		c0.714,0,1.324-0.269,1.834-0.806c0.509-0.536,0.763-1.24,0.763-2.113s-0.254-1.562-0.763-2.065
		c-0.51-0.504-1.12-0.756-1.834-0.756c-0.715,0-1.325,0.261-1.834,0.784c-0.51,0.522-0.764,1.216-0.764,2.079
		s0.254,1.559,0.764,2.086C524.594,157.913,525.204,158.177,525.919,158.177"/>
	<path clip-path="url(#SVGID_113_)" fill="#808184" d="M531.998,158.142c-0.699-0.751-1.049-1.713-1.049-2.884
		c0-1.172,0.347-2.119,1.043-2.842c0.695-0.724,1.57-1.086,2.625-1.086c0.653,0,1.225,0.154,1.714,0.463
		c0.491,0.308,0.862,0.709,1.114,1.203v-1.539h1.288v7.686h-1.288v-1.568c-0.252,0.504-0.623,0.913-1.114,1.226
		c-0.489,0.313-1.061,0.469-1.714,0.469C533.572,159.269,532.699,158.893,531.998,158.142 M536.683,157.393
		c0.508-0.522,0.763-1.218,0.763-2.086s-0.255-1.563-0.763-2.086c-0.51-0.522-1.12-0.784-1.834-0.784s-1.326,0.252-1.834,0.756
		c-0.51,0.504-0.765,1.19-0.765,2.059c0,0.867,0.257,1.572,0.771,2.113c0.513,0.542,1.124,0.813,1.834,0.813
		C535.564,158.177,536.173,157.915,536.683,157.393"/>
	<rect x="540.749" y="148.782" clip-path="url(#SVGID_113_)" fill="#808184" width="1.274" height="10.359"/>
	<polygon clip-path="url(#SVGID_113_)" fill="#808184" points="557.13,151.457 558.416,151.457 555.994,159.143 554.68,159.143 
		552.942,153.039 551.206,159.143 549.877,159.143 547.441,151.457 548.758,151.457 550.534,157.868 552.342,151.457 
		553.656,151.457 555.364,157.883 	"/>
	<path clip-path="url(#SVGID_113_)" fill="#808184" d="M562.66,159.269c-1.1,0-1.997-0.364-2.687-1.092
		c-0.691-0.729-1.036-1.689-1.036-2.884c0-1.195,0.35-2.154,1.05-2.877c0.7-0.725,1.607-1.085,2.723-1.085s2.012,0.343,2.688,1.027
		c0.676,0.688,1.015,1.563,1.015,2.625c0,0.272-0.019,0.524-0.056,0.757h-6.119c0.038,0.766,0.279,1.369,0.722,1.813
		c0.443,0.443,1.011,0.665,1.7,0.665c0.524,0,0.964-0.117,1.324-0.351c0.359-0.232,0.623-0.541,0.791-0.924h1.372
		c-0.243,0.672-0.66,1.228-1.253,1.665C564.302,159.05,563.558,159.269,562.66,159.269 M564.384,153.046
		c-0.458-0.443-1.024-0.665-1.701-0.665s-1.239,0.217-1.688,0.65c-0.447,0.435-0.694,1.029-0.74,1.785h4.829
		C565.073,154.079,564.841,153.489,564.384,153.046"/>
	<path clip-path="url(#SVGID_113_)" fill="#808184" d="M568.565,158.142c-0.699-0.751-1.049-1.713-1.049-2.884
		c0-1.172,0.347-2.119,1.043-2.842c0.695-0.724,1.57-1.086,2.625-1.086c0.653,0,1.225,0.154,1.714,0.463
		c0.491,0.308,0.862,0.709,1.114,1.203v-1.539h1.288v7.686h-1.288v-1.568c-0.252,0.504-0.623,0.913-1.114,1.226
		c-0.489,0.313-1.061,0.469-1.714,0.469C570.14,159.269,569.267,158.893,568.565,158.142 M573.25,157.393
		c0.508-0.522,0.763-1.218,0.763-2.086s-0.255-1.563-0.763-2.086c-0.51-0.522-1.12-0.784-1.834-0.784
		c-0.715,0-1.326,0.252-1.834,0.756c-0.51,0.504-0.765,1.19-0.765,2.059c0,0.867,0.257,1.572,0.771,2.113
		c0.513,0.542,1.124,0.813,1.834,0.813C572.132,158.177,572.74,157.915,573.25,157.393"/>
	<rect x="577.316" y="148.782" clip-path="url(#SVGID_113_)" fill="#808184" width="1.273" height="10.359"/>
	<path clip-path="url(#SVGID_113_)" fill="#808184" d="M583.114,158.106h1.05v1.036h-1.288c-1.335,0-2.002-0.658-2.002-1.973v-4.678
		h-0.994v-1.035h0.994v-1.904h1.288v1.904h1.987v1.035h-1.987v4.678c0,0.344,0.069,0.587,0.21,0.727
		C582.511,158.036,582.759,158.106,583.114,158.106"/>
	<path clip-path="url(#SVGID_113_)" fill="#808184" d="M586.667,148.782v3.92c0.521-0.914,1.356-1.371,2.506-1.371
		c0.848,0,1.558,0.282,2.128,0.848c0.568,0.563,0.853,1.369,0.853,2.414v4.55h-1.259v-4.339c0-0.775-0.187-1.363-0.56-1.765
		c-0.374-0.401-0.891-0.603-1.548-0.603s-1.177,0.201-1.555,0.603s-0.565,0.989-0.565,1.765v4.339h-1.274v-10.36H586.667z"/>
	<path clip-path="url(#SVGID_113_)" fill="#FFFFFF" d="M43.514,81.307c1.055,0,1.93,0.362,2.625,1.085
		c0.695,0.723,1.043,1.67,1.043,2.842c0,1.171-0.35,2.133-1.05,2.884c-0.7,0.751-1.573,1.127-2.618,1.127
		c-0.653,0-1.224-0.156-1.715-0.469c-0.49-0.313-0.866-0.722-1.127-1.226v1.568h-1.274V78.758h1.274v4.214
		c0.261-0.494,0.637-0.896,1.127-1.203C42.29,81.461,42.861,81.307,43.514,81.307 M43.269,88.153c0.714,0,1.325-0.269,1.834-0.806
		c0.509-0.536,0.763-1.24,0.763-2.113s-0.254-1.561-0.763-2.065c-0.509-0.504-1.12-0.756-1.834-0.756s-1.325,0.262-1.834,0.784
		c-0.509,0.522-0.763,1.216-0.763,2.079s0.254,1.559,0.763,2.086C41.944,87.89,42.555,88.153,43.269,88.153"/>
	<polygon clip-path="url(#SVGID_113_)" fill="#FFFFFF" points="50.595,88.993 47.557,81.433 48.958,81.433 51.309,87.649 
		53.703,81.433 55.02,81.433 50.385,92.717 49.069,92.717 	"/>
	<path clip-path="url(#SVGID_113_)" fill="#FFFFFF" d="M60.171,88.979v-0.91c0.224-0.196,0.576-0.499,1.057-0.91
		c0.48-0.41,0.838-0.721,1.071-0.931c0.233-0.21,0.541-0.495,0.924-0.854c0.383-0.359,0.674-0.66,0.875-0.903
		c0.2-0.242,0.408-0.522,0.623-0.84c0.401-0.597,0.601-1.188,0.601-1.771s-0.151-1.053-0.454-1.407
		c-0.303-0.355-0.78-0.533-1.428-0.533c-0.649,0-1.146,0.199-1.492,0.596c-0.344,0.397-0.531,0.921-0.559,1.574h-1.218
		c0.037-1.045,0.352-1.85,0.944-2.416c0.593-0.564,1.364-0.846,2.311-0.846c0.947,0,1.708,0.268,2.282,0.804
		c0.573,0.537,0.86,1.268,0.86,2.192c0,1.11-0.541,2.253-1.624,3.429c-0.391,0.42-0.695,0.729-0.909,0.924
		c-0.597,0.579-1.237,1.153-1.918,1.723h4.76v1.078H60.171z"/>
	<path clip-path="url(#SVGID_113_)" fill="#FFFFFF" d="M69.151,79.859c0.256-0.294,0.592-0.531,1.008-0.707
		c0.415-0.178,0.932-0.267,1.553-0.267c0.621,0,1.167,0.129,1.638,0.386c0.472,0.257,0.833,0.628,1.085,1.112
		c0.458,0.896,0.687,2.101,0.687,3.612c0,1.941-0.346,3.318-1.037,4.13c-0.569,0.654-1.395,0.98-2.477,0.98
		c-1.988,0-3.132-1.161-3.431-3.486c-0.055-0.485-0.084-1.029-0.084-1.631c0-0.603,0.03-1.144,0.091-1.624s0.173-0.945,0.336-1.394
		C68.684,80.524,68.894,80.153,69.151,79.859 M73.518,81.258c-0.145-0.405-0.378-0.714-0.699-0.924
		c-0.322-0.21-0.703-0.314-1.142-0.314c-0.438,0-0.8,0.074-1.085,0.223c-0.284,0.15-0.506,0.341-0.665,0.575
		c-0.158,0.233-0.284,0.534-0.378,0.902c-0.093,0.369-0.151,0.725-0.175,1.064c-0.023,0.341-0.035,0.745-0.035,1.211
		c0,0.467,0.012,0.87,0.035,1.211c0.024,0.341,0.082,0.695,0.175,1.064c0.094,0.368,0.22,0.67,0.378,0.902
		c0.159,0.233,0.381,0.425,0.665,0.574c0.285,0.149,0.623,0.224,1.016,0.224c0.391,0,0.729-0.074,1.014-0.224
		c0.285-0.149,0.509-0.341,0.672-0.574c0.163-0.232,0.287-0.536,0.371-0.91c0.15-0.597,0.224-1.273,0.224-2.029
		s-0.025-1.34-0.077-1.75C73.761,82.072,73.663,81.664,73.518,81.258"/>
	<path clip-path="url(#SVGID_113_)" fill="#FFFFFF" d="M77.083,78.885h6.062v1.106H78.26v3.206c0.206-0.308,0.518-0.563,0.938-0.77
		c0.42-0.205,0.899-0.308,1.435-0.308c0.537,0,1.027,0.101,1.471,0.301c0.443,0.201,0.786,0.474,1.028,0.818
		c0.458,0.673,0.686,1.438,0.686,2.297c0,1.055-0.294,1.916-0.881,2.583c-0.588,0.667-1.413,1.001-2.472,1.001
		c-1.059,0-1.89-0.247-2.491-0.742c-0.603-0.494-0.979-1.147-1.127-1.96h1.217c0.13,0.504,0.399,0.901,0.805,1.19
		c0.406,0.289,0.943,0.434,1.611,0.434c0.666,0,1.189-0.224,1.567-0.672c0.378-0.448,0.567-1.05,0.567-1.806
		s-0.189-1.337-0.567-1.743c-0.378-0.406-0.941-0.609-1.687-0.609c-0.504,0-0.938,0.131-1.301,0.393
		c-0.365,0.26-0.635,0.615-0.813,1.063h-1.162V78.885z"/>
	<path clip-path="url(#SVGID_113_)" fill="#FFFFFF" d="M86.353,79.859c0.256-0.294,0.592-0.531,1.008-0.707
		c0.415-0.178,0.932-0.267,1.553-0.267c0.621,0,1.167,0.129,1.638,0.386c0.472,0.257,0.833,0.628,1.085,1.112
		c0.458,0.896,0.687,2.101,0.687,3.612c0,1.941-0.346,3.318-1.037,4.13c-0.569,0.654-1.395,0.98-2.477,0.98
		c-1.988,0-3.132-1.161-3.431-3.486c-0.055-0.485-0.084-1.029-0.084-1.631c0-0.603,0.03-1.144,0.091-1.624s0.173-0.945,0.336-1.394
		C85.885,80.524,86.095,80.153,86.353,79.859 M90.719,81.258c-0.145-0.405-0.378-0.714-0.699-0.924
		c-0.322-0.21-0.703-0.314-1.142-0.314c-0.438,0-0.8,0.074-1.085,0.223c-0.284,0.15-0.506,0.341-0.665,0.575
		c-0.158,0.233-0.284,0.534-0.378,0.902c-0.093,0.369-0.151,0.725-0.175,1.064c-0.023,0.341-0.035,0.745-0.035,1.211
		c0,0.467,0.012,0.87,0.035,1.211c0.024,0.341,0.082,0.695,0.175,1.064c0.094,0.368,0.22,0.67,0.378,0.902
		c0.159,0.233,0.381,0.425,0.665,0.574c0.285,0.149,0.623,0.224,1.016,0.224c0.391,0,0.729-0.074,1.014-0.224
		c0.285-0.149,0.509-0.341,0.672-0.574c0.163-0.232,0.287-0.536,0.371-0.91c0.15-0.597,0.224-1.273,0.224-2.029
		s-0.025-1.34-0.077-1.75C90.962,82.072,90.864,81.664,90.719,81.258"/>
</g>
</svg>
