{
    "key": "group_5b203eb0896cd",
    "title": "CPT - Company",
    "fields": [
        {
            "key": "field_5b205183ede6f",
            "label": "Location",
            "name": "location",
            "type": "text",
            "instructions": "",
            "required": 0,
            "conditional_logic": 0,
            "wrapper": {
                "width": "",
                "class": "",
                "id": ""
            },
            "default_value": "",
            "placeholder": "",
            "prepend": "",
            "append": "",
            "maxlength": ""
        },
        {
            "key": "field_5b203ecc402de",
            "label": "Website URL",
            "name": "url",
            "type": "url",
            "instructions": "",
            "required": 0,
            "conditional_logic": 0,
            "wrapper": {
                "width": "",
                "class": "",
                "id": ""
            },
            "default_value": "",
            "placeholder": ""
        },
        {
            "key": "field_5b2054c3d3293",
            "label": "Focus Areas",
            "name": "focus_areas",
            "type": "repeater",
            "instructions": "",
            "required": 0,
            "conditional_logic": 0,
            "wrapper": {
                "width": "",
                "class": "",
                "id": ""
            },
            "collapsed": "field_5b2054e7d3294",
            "min": 0,
            "max": 0,
            "layout": "row",
            "button_label": "Add Focus Area",
            "sub_fields": [
                {
                    "key": "field_5b2054e7d3294",
                    "label": "Focus Area",
                    "name": "focus_area",
                    "type": "post_object",
                    "instructions": "",
                    "required": 1,
                    "conditional_logic": 0,
                    "wrapper": {
                        "width": "",
                        "class": "",
                        "id": ""
                    },
                    "post_type": [
                        "lifebio_focusarea"
                    ],
                    "taxonomy": [],
                    "allow_null": 0,
                    "multiple": 0,
                    "return_format": "object",
                    "ui": 1
                },
                {
                    "key": "field_5b2a757644dde",
                    "label": "Description",
                    "name": "text",
                    "type": "textarea",
                    "instructions": "",
                    "required": 0,
                    "conditional_logic": 0,
                    "wrapper": {
                        "width": "",
                        "class": "",
                        "id": ""
                    },
                    "default_value": "",
                    "placeholder": "",
                    "maxlength": "",
                    "rows": 4,
                    "new_lines": "wpautop"
                }
            ]
        },
        {
            "key": "field_5ba1676c30acf",
            "label": "Color",
            "name": "color",
            "type": "color_picker",
            "instructions": "",
            "required": 0,
            "conditional_logic": 0,
            "wrapper": {
                "width": "",
                "class": "",
                "id": ""
            },
            "default_value": "#000"
        },
        {
            "key": "field_5ba3c4beb0c06",
            "label": "View area",
            "name": "view_area",
            "type": "select",
            "instructions": "Show in wheel, or in list?",
            "required": 0,
            "conditional_logic": 0,
            "wrapper": {
                "width": "",
                "class": "",
                "id": ""
            },
            "choices": {
                "wheel": "Wheel",
                "list": "List"
            },
            "default_value": [
                "wheel"
            ],
            "allow_null": 0,
            "multiple": 0,
            "ui": 0,
            "ajax": 0,
            "return_format": "value",
            "placeholder": ""
        },
        {
            "key": "field_5ba3fc46884a2",
            "label": "Summary",
            "name": "summary",
            "type": "textarea",
            "instructions": "Optional field: You can put a shorter version of a Company's summary here, such that the copy fits within the wheel's main text circle.",
            "required": 0,
            "conditional_logic": [
                [
                    {
                        "field": "field_5ba3c4beb0c06",
                        "operator": "==",
                        "value": "wheel"
                    }
                ]
            ],
            "wrapper": {
                "width": "",
                "class": "",
                "id": ""
            },
            "default_value": "",
            "placeholder": "",
            "maxlength": "",
            "rows": 4,
            "new_lines": ""
        },
        {
            "key": "field_5ba8faf61c260",
            "label": "Logo",
            "name": "logo",
            "type": "image",
            "instructions": "",
            "required": 0,
            "conditional_logic": 0,
            "wrapper": {
                "width": "",
                "class": "",
                "id": ""
            },
            "return_format": "url",
            "preview_size": "thumbnail",
            "library": "all",
            "min_width": "",
            "min_height": "",
            "min_size": "",
            "max_width": "",
            "max_height": "",
            "max_size": "",
            "mime_types": ""
        }
    ],
    "location": [
        [
            {
                "param": "post_type",
                "operator": "==",
                "value": "lifebio_company"
            }
        ]
    ],
    "menu_order": 0,
    "position": "normal",
    "style": "seamless",
    "label_placement": "top",
    "instruction_placement": "label",
    "hide_on_screen": "",
    "active": 1,
    "description": "",
    "modified": 1544213982
}